0	0.2	0.000000479647	0.99999952
0	0.201	0.000000943099	0.999999057
0	0.202	0.000000369775	0.99999963
0	0.203	0.000000501090	0.999999499
0	0.204	0.000000458128	0.999999542
0	0.205	0.000000607545	0.999999392
0	0.206	0.000000479647	0.99999952
0	0.207	0.000000943099	0.999999057
0	0.208	0.000000369775	0.99999963
0	0.209	0.000000501090	0.999999499
0	0.21	0.000000458128	0.999999542
0	0.211	0.000000274278	0.999999726
0	0.212	0.000000383535	0.999999616
0	0.213	0.000000448543	0.999999551
0	0.214	0.000000167692	0.999999832
0	0.215	0.000000166293	0.999999834
0	0.216	0.000000368588	0.999999631
0	0.217	0.000000334849	0.999999665
0	0.218	0.000000703364	0.999999297
0	0.219	0.000000265441	0.999999735
0	0.22	0.000000451873	0.999999548
0	0.221	0.000000535657	0.999999464
0	0.222	0.000000511643	0.999999488
0	0.223	0.000000067581	0.999999932
0	0.224	0.000000449586	0.99999955
0	0.225	0.000000247081	0.999999753
0	0.226	0.000000201396	0.999999799
0	0.227	0.000000315048	0.999999685
0	0.228	0.000000427436	0.999999573
0	0.229	0.000000556212	0.999999444
0	0.23	0.000000524823	0.999999475
0	0.231	0.000000447716	0.999999552
0	0.232	0.000000364202	0.999999636
0	0.233	0.000000528157	0.999999472
0	0.234	0.000000501427	0.999999499
0	0.235	0.000000391547	0.999999608
0	0.236	0.000000421350	0.999999579
0	0.237	0.000000352918	0.999999647
0	0.238	0.000000712081	0.999999288
0	0.239	0.000000205337	0.999999795
0	0.24	0.000000342945	0.999999657
0	0.241	0.000000618810	0.999999381
0	0.242	0.000000388972	0.999999611
0	0.243	0.000000615802	0.999999384
0	0.244	0.000000621244	0.999999379
0	0.245	0.000000444201	0.999999556
0	0.246	0.000000615090	0.999999385
0	0.247	0.000000454095	0.999999546
0	0.248	0.000000586612	0.999999413
0	0.249	0.000000674583	0.999999325
0	0.25	0.000000466301	0.999999534
0	0.251	0.000000648272	0.999999352
0	0.252	0.000000766451	0.999999234
0	0.253	0.000000577018	0.999999423
0	0.254	0.000000525362	0.999999475
0	0.255	0.000000501410	0.999999499
0	0.256	0.000000529256	0.999999471
0	0.257	0.000000463842	0.999999536
0	0.258	0.000000701292	0.999999299
0	0.259	0.000000452707	0.999999547
0	0.26	0.000000499451	0.999999501
0	0.261	0.000000581405	0.999999419
0	0.262	0.000000606146	0.999999394
0	0.263	0.000000670423	0.99999933
0	0.264	0.000000629883	0.99999937
0	0.265	0.000000631217	0.999999369
0	0.266	0.000000402305	0.999999598
0	0.267	0.000000714397	0.999999286
0	0.268	0.000000815583	0.999999184
0	0.269	0.000000595020	0.999999405
0	0.27	0.000000562819	0.999999437
0	0.271	0.000000489764	0.99999951
0	0.272	0.000000778651	0.999999221
0	0.273	0.000000517238	0.999999483
0	0.274	0.000000724719	0.999999275
0	0.275	0.000000698580	0.999999301
0	0.276	0.000000415893	0.999999584
0	0.277	0.000000423099	0.999999577
0	0.278	0.000000666155	0.999999334
0	0.279	0.000000542162	0.999999458
0	0.28	0.000000401709	0.999999598
0	0.281	0.000000748687	0.999999251
0	0.282	0.000000562451	0.999999438
0	0.283	0.000000457958	0.999999542
0	0.284	0.000000352501	0.999999647
0	0.285	0.000000547672	0.999999452
0	0.286	0.000000473904	0.999999526
0	0.287	0.000000309971	0.99999969
0	0.288	0.000000549397	0.999999451
0	0.289	0.000000514117	0.999999486
0	0.29	0.000000519216	0.999999481
0	0.291	0.000000578855	0.999999421
0	0.292	0.000000586834	0.999999413
0	0.293	0.000000142732	0.999999857
0	0.294	0.000000300100	0.9999997
0	0.295	0.000000438197	0.999999562
0	0.296	0.000000563535	0.999999436
0	0.297	0.000000052357	0.999999948
0	0.298	0.000000379455	0.999999621
0	0.299	0.000000466386	0.999999534
0	0.3	0.000000743028	0.999999257
0	0.301	0.000000635921	0.999999364
0	0.302	0.000000840316	0.99999916
0	0.303	0.000000670410	0.99999933
0	0.304	0.000000966449	0.999999034
0	0.305	0.000001423300	0.999998577
0	0.306	0.000001251350	0.999998749
0	0.307	0.000001209030	0.999998791
0	0.308	0.000001266230	0.999998734
0	0.309	0.000001652570	0.999998347
0	0.31	0.000001509970	0.99999849
0	0.311	0.000001736290	0.999998264
0	0.312	0.000002185160	0.999997815
0	0.313	0.000001979710	0.99999802
0	0.314	0.000002014560	0.999997985
0	0.315	0.000001655670	0.999998344
0	0.316	0.000001476690	0.999998523
0	0.317	0.000001605160	0.999998395
0	0.318	0.000001794420	0.999998206
0	0.319	0.000001554160	0.999998446
0	0.32	0.000001357830	0.999998642
0	0.321	0.000001383600	0.999998616
0	0.322	0.000001287730	0.999998712
0	0.323	0.000001419990	0.99999858
0	0.324	0.000001545790	0.999998454
0	0.325	0.000001631190	0.999998369
0	0.326	0.000001405120	0.999998595
0	0.327	0.000001731550	0.999998268
0	0.328	0.000001831160	0.999998169
0	0.329	0.000001275520	0.999998724
0	0.33	0.000001001670	0.999998998
0	0.331	0.000001872990	0.999998127
0	0.332	0.000001437720	0.999998562
0	0.333	0.000000963327	0.999999037
0	0.334	0.000001510350	0.99999849
0	0.335	0.000002050230	0.99999795
0	0.336	0.000001849060	0.999998151
0	0.337	0.000001199160	0.999998801
0	0.338	0.000001508170	0.999998492
0	0.339	0.000001845270	0.999998155
0	0.34	0.000001466360	0.999998534
0	0.341	0.000001383850	0.999998616
0	0.342	0.000001216290	0.999998784
0	0.343	0.000001658600	0.999998341
0	0.344	0.000001376480	0.999998624
0	0.345	0.000001769070	0.999998231
0	0.346	0.000001275360	0.999998725
0	0.347	0.000000863421	0.999999137
0	0.348	0.000001223360	0.999998777
0	0.349	0.000001715080	0.999998285
0	0.35	0.000001678490	0.999998322
0	0.351	0.000001593890	0.999998406
0	0.352	0.000001242530	0.999998757
0	0.353	0.000001082230	0.999998918
0	0.354	0.000000992203	0.999999008
0	0.355	0.000001953320	0.999998047
0	0.356	0.000002210410	0.99999779
0	0.357	0.000001746770	0.999998253
0	0.358	0.000001761790	0.999998238
0	0.359	0.000001464210	0.999998536
0	0.36	0.000001786620	0.999998213
0	0.361	0.000002201630	0.999997798
0	0.362	0.000002367170	0.999997633
0	0.363	0.000001936040	0.999998064
0	0.364	0.000002144020	0.999997856
0	0.365	0.000001797510	0.999998202
0	0.366	0.000001618670	0.999998381
0	0.367	0.000001576160	0.999998424
0	0.368	0.000001369320	0.999998631
0	0.369	0.000001696080	0.999998304
0	0.37	0.000001980070	0.99999802
0	0.371	0.000002658860	0.999997341
0	0.372	0.000002893790	0.999997106
0	0.373	0.000002882400	0.999997118
0	0.374	0.000003294510	0.999996705
0	0.375	0.000004734110	0.999995266
0	0.376	0.000007144340	0.999992856
0	0.377	0.000009097040	0.999990903
0	0.378	0.000010709300	0.999989291
0	0.379	0.000011642000	0.999988358
0	0.38	0.013926300000	0.9860737
0	0.3803	0.006603920000	0.99339608
0	0.3806	0.008363460000	0.99163654
0	0.3809	0.010833200000	0.9891668
0	0.3812	0.006824920000	0.99317508
0	0.3815	0.004618230000	0.99538177
0	0.3818	0.004137540000	0.99586246
0	0.3821	0.003382000000	0.996618
0	0.3824	0.004625080000	0.99537492
0	0.3827	0.005980460000	0.99401954
0	0.383	0.009538770000	0.99046123
0	0.3833	0.003826750000	0.99617325
0	0.3836	0.003350310000	0.99664969
0	0.3839	0.003366000000	0.996634
0	0.3842	0.003048230000	0.99695177
0	0.3845	0.004865610000	0.99513439
0	0.3848	0.009028420000	0.99097158
0	0.3851	0.007557950000	0.99244205
0	0.3854	0.006583540000	0.99341646
0	0.3857	0.006544000000	0.993456
0	0.386	0.008334080000	0.99166592
0	0.3863	0.008416080000	0.99158392
0	0.3866	0.004681650000	0.99531835
0	0.3869	0.002647820000	0.99735218
0	0.3872	0.004171230000	0.99582877
0	0.3875	0.008850770000	0.99114923
0	0.3878	0.009330080000	0.99066992
0	0.3881	0.007249230000	0.99275077
0	0.3884	0.007979540000	0.99202046
0	0.3887	0.005894230000	0.99410577
0	0.389	0.005065460000	0.99493454
0	0.3893	0.006838560000	0.99316144
0	0.3896	0.006076690000	0.99392331
0	0.3899	0.006185000000	0.993815
0	0.3902	0.004288360000	0.99571164
0	0.3905	0.003696850000	0.99630315
0	0.3908	0.004694460000	0.99530554
0	0.3911	0.002062920000	0.99793708
0	0.3914	0.003647620000	0.99635238
0	0.3917	0.005096000000	0.994904
0	0.392	0.008168470000	0.99183153
0	0.3923	0.004697150000	0.99530285
0	0.3926	0.005244420000	0.99475558
0	0.3929	0.007808310000	0.99219169
0	0.3932	0.006734380000	0.99326562
0	0.3935	0.006442000000	0.993558
0	0.3938	0.009565460000	0.99043454
0	0.3941	0.010594100000	0.9894059
0	0.3944	0.011866700000	0.9881333
0	0.3947	0.009554460000	0.99044554
0	0.395	0.007868790000	0.99213121
0	0.3953	0.014745500000	0.9852545
0	0.3956	0.012547500000	0.9874525
0	0.3959	0.011550400000	0.9884496
0	0.3962	0.013049100000	0.9869509
0	0.3965	0.014626000000	0.985374
0	0.3968	0.017046500000	0.9829535
0	0.3971	0.022351500000	0.9776485
0	0.3974	0.027891800000	0.9721082
0	0.3977	0.036185700000	0.9638143
0	0.398	0.044288500000	0.9557115
0	0.3983	0.049133800000	0.9508662
0	0.3986	0.050343100000	0.9496569
0	0.3989	0.051531500000	0.9484685
0	0.3992	0.058800000000	0.9412
0	0.3995	0.065860800000	0.9341392
0	0.3998	0.083734600000	0.9162654
0	0.4001	0.112190000000	0.88781
0	0.4004	0.140395000000	0.859605
0	0.4007	0.177288000000	0.822712
0	0.401	0.213754000000	0.786246
0	0.4013	0.243035000000	0.756965
0	0.4016	0.262809000000	0.737191
0	0.4019	0.282032000000	0.717968
0	0.4022	0.317554000000	0.682446
0	0.4025	0.352477000000	0.647523
0	0.4028	0.406854000000	0.593146
0	0.4031	0.477477000000	0.522523
0	0.4034	0.547323000000	0.452677
0	0.4037	0.598469000000	0.401531
0	0.404	0.648338000000	0.351662
0	0.4043	0.673377000000	0.326623
0	0.4046	0.693685000000	0.306315
0	0.4049	0.713946000000	0.286054
0	0.4052	0.731454000000	0.268546
0	0.4055	0.748538000000	0.251462
0	0.4058	0.767162000000	0.232838
0	0.4061	0.781169000000	0.218831
0	0.4064	0.794738000000	0.205262
0	0.4067	0.801777000000	0.198223
0	0.407	0.808723000000	0.191277
0	0.4073	0.806554000000	0.193446
0	0.4076	0.803615000000	0.196385
0	0.4079	0.800708000000	0.199292
0	0.4082	0.799492000000	0.200508
0	0.4085	0.798346000000	0.201654
0	0.4088	0.807323000000	0.192677
0	0.4091	0.812515000000	0.187485
0	0.4094	0.817638000000	0.182362
0	0.4097	0.817138000000	0.182862
0	0.41	0.816662000000	0.183338
0	0.4103	0.811400000000	0.1886
0	0.4106	0.808415000000	0.191585
0	0.4109	0.805431000000	0.194569
0	0.4112	0.805562000000	0.194438
0	0.4115	0.805700000000	0.1943
0	0.4118	0.814069000000	0.185931
0	0.4121	0.820438000000	0.179562
0	0.4124	0.826792000000	0.173208
0	0.4127	0.825362000000	0.174638
0	0.413	0.823977000000	0.176023
0	0.4133	0.827885000000	0.172115
0	0.4136	0.829846000000	0.170154
0	0.4139	0.831785000000	0.168215
0	0.4142	0.832269000000	0.167731
0	0.4145	0.832785000000	0.167215
0	0.4148	0.840592000000	0.159408
0	0.4151	0.835015000000	0.164985
0	0.4154	0.829577000000	0.170423
0	0.4157	0.828877000000	0.171123
0	0.416	0.828169000000	0.171831
0	0.4163	0.837369000000	0.162631
0	0.4166	0.833669000000	0.166331
0	0.4169	0.830054000000	0.169946
0	0.4172	0.833392000000	0.166608
0	0.4175	0.836723000000	0.163277
0	0.4178	0.836331000000	0.163669
0	0.4181	0.839515000000	0.160485
0	0.4184	0.842669000000	0.157331
0	0.4187	0.842069000000	0.157931
0	0.419	0.841485000000	0.158515
0	0.4193	0.841708000000	0.158292
0	0.4196	0.844538000000	0.155462
0	0.4199	0.847300000000	0.1527
0	0.4202	0.850362000000	0.149638
0	0.4205	0.853400000000	0.1466
0	0.4208	0.846254000000	0.153746
0	0.4211	0.850646000000	0.149354
0	0.4214	0.854985000000	0.145015
0	0.4217	0.851385000000	0.148615
0	0.422	0.847838000000	0.152162
0	0.4223	0.847854000000	0.152146
0	0.4226	0.848738000000	0.151262
0	0.4229	0.849662000000	0.150338
0	0.4232	0.848885000000	0.151115
0	0.4235	0.848077000000	0.151923
0	0.4238	0.841885000000	0.158115
0	0.4241	0.841454000000	0.158546
0	0.4244	0.841015000000	0.158985
0	0.4247	0.843354000000	0.156646
0	0.425	0.845654000000	0.154346
0	0.4253	0.844054000000	0.155946
0	0.4256	0.845485000000	0.154515
0	0.4259	0.846908000000	0.153092
0	0.4262	0.846838000000	0.153162
0	0.4265	0.846792000000	0.153208
0	0.4268	0.849546000000	0.150454
0	0.4271	0.850269000000	0.149731
0	0.4274	0.850992000000	0.149008
0	0.4277	0.853638000000	0.146362
0	0.428	0.856292000000	0.143708
0	0.4283	0.856338000000	0.143662
0	0.4286	0.859208000000	0.140792
0	0.4289	0.862069000000	0.137931
0	0.4292	0.860992000000	0.139008
0	0.4295	0.859931000000	0.140069
0	0.4298	0.861238000000	0.138762
0	0.4301	0.864715000000	0.135285
0	0.4304	0.868154000000	0.131846
0	0.4307	0.868754000000	0.131246
0	0.431	0.869369000000	0.130631
0	0.4313	0.871346000000	0.128654
0	0.4316	0.868323000000	0.131677
0	0.4319	0.865338000000	0.134662
0	0.4322	0.865369000000	0.134631
0	0.4325	0.865377000000	0.134623
0	0.4328	0.860854000000	0.139146
0	0.4331	0.860962000000	0.139038
0	0.4334	0.861085000000	0.138915
0	0.4337	0.860815000000	0.139185
0	0.434	0.860569000000	0.139431
0	0.4343	0.864008000000	0.135992
0	0.4346	0.865185000000	0.134815
0	0.4349	0.866354000000	0.133646
0	0.4352	0.868800000000	0.1312
0	0.4355	0.871215000000	0.128785
0	0.4358	0.879292000000	0.120708
0	0.4361	0.876769000000	0.123231
0	0.4364	0.874269000000	0.125731
0	0.4367	0.877638000000	0.122362
0	0.437	0.880969000000	0.119031
0	0.4373	0.881100000000	0.1189
0	0.4376	0.880277000000	0.119723
0	0.4379	0.879477000000	0.120523
0	0.4382	0.878738000000	0.121262
0	0.4385	0.877985000000	0.122015
0	0.4388	0.873631000000	0.126369
0	0.4391	0.872446000000	0.127554
0	0.4394	0.871231000000	0.128769
0	0.4397	0.870200000000	0.1298
0	0.44	0.869162000000	0.130838
0	0.4403	0.866838000000	0.133162
0	0.4406	0.868362000000	0.131638
0	0.4409	0.869908000000	0.130092
0	0.4412	0.872131000000	0.127869
0	0.4415	0.874346000000	0.125654
0	0.4418	0.872985000000	0.127015
0	0.4421	0.873931000000	0.126069
0	0.4424	0.874869000000	0.125131
0	0.4427	0.876292000000	0.123708
0	0.443	0.877708000000	0.122292
0	0.4433	0.876908000000	0.123092
0	0.4436	0.878385000000	0.121615
0	0.4439	0.879808000000	0.120192
0	0.4442	0.878608000000	0.121392
0	0.4445	0.877423000000	0.122577
0	0.4448	0.873715000000	0.126285
0	0.4451	0.873677000000	0.126323
0	0.4454	0.873623000000	0.126377
0	0.4457	0.870369000000	0.129631
0	0.446	0.867138000000	0.132862
0	0.4463	0.865408000000	0.134592
0	0.4466	0.862885000000	0.137115
0	0.4469	0.860408000000	0.139592
0	0.4472	0.859346000000	0.140654
0	0.4475	0.858323000000	0.141677
0	0.4478	0.858085000000	0.141915
0	0.4481	0.858308000000	0.141692
0	0.4484	0.858508000000	0.141492
0	0.4487	0.863354000000	0.136646
0	0.449	0.868162000000	0.131838
0	0.4493	0.868992000000	0.131008
0	0.4496	0.869654000000	0.130346
0	0.4499	0.870308000000	0.129692
0	0.4502	0.875015000000	0.124985
0	0.4505	0.879692000000	0.120308
0	0.4508	0.874638000000	0.125362
0	0.4511	0.878315000000	0.121685
0	0.4514	0.882000000000	0.118
0	0.4517	0.885031000000	0.114969
0	0.452	0.888062000000	0.111938
0	0.4523	0.890192000000	0.109808
0	0.4526	0.893223000000	0.106777
0	0.4529	0.896223000000	0.103777
0	0.4532	0.896577000000	0.103423
0	0.4535	0.896931000000	0.103069
0	0.4538	0.898931000000	0.101069
0	0.4541	0.898054000000	0.101946
0	0.4544	0.897185000000	0.102815
0	0.4547	0.898131000000	0.101869
0	0.455	0.899085000000	0.100915
0	0.4553	0.893562000000	0.106438
0	0.4556	0.896446000000	0.103554
0	0.4559	0.899308000000	0.100692
0	0.4562	0.897085000000	0.102915
0	0.4565	0.894885000000	0.105115
0	0.4568	0.893285000000	0.106715
0	0.4571	0.888231000000	0.111769
0	0.4574	0.883238000000	0.116762
0	0.4577	0.878885000000	0.121115
0	0.458	0.874569000000	0.125431
0	0.4583	0.871731000000	0.128269
0	0.4586	0.871608000000	0.128392
0	0.4589	0.871477000000	0.128523
0	0.4592	0.869769000000	0.130231
0	0.4595	0.868077000000	0.131923
0	0.4598	0.873315000000	0.126685
0	0.4601	0.875138000000	0.124862
0	0.4604	0.876962000000	0.123038
0	0.4607	0.875592000000	0.124408
0	0.461	0.874223000000	0.125777
0	0.4613	0.872000000000	0.128
0	0.4616	0.870500000000	0.1295
0	0.4619	0.869015000000	0.130985
0	0.4622	0.869046000000	0.130954
0	0.4625	0.869054000000	0.130946
0	0.4628	0.866031000000	0.133969
0	0.4631	0.870300000000	0.1297
0	0.4634	0.874554000000	0.125446
0	0.4637	0.878115000000	0.121885
0	0.464	0.881662000000	0.118338
0	0.4643	0.886377000000	0.113623
0	0.4646	0.890123000000	0.109877
0	0.4649	0.893862000000	0.106138
0	0.4652	0.895492000000	0.104508
0	0.4655	0.897138000000	0.102862
0	0.4658	0.899777000000	0.100223
0	0.4661	0.901215000000	0.098785
0	0.4664	0.902615000000	0.097385
0	0.4667	0.905892000000	0.094108
0	0.467	0.909154000000	0.090846
0	0.4673	0.907700000000	0.0923
0	0.4676	0.909592000000	0.090408
0	0.4679	0.911462000000	0.088538
0	0.4682	0.910938000000	0.089062
0	0.4685	0.910431000000	0.089569
0	0.4688	0.909577000000	0.090423
0	0.4691	0.907962000000	0.092038
0	0.4694	0.906369000000	0.093631
0	0.4697	0.895269000000	0.104731
0	0.47	0.884262000000	0.115738
0	0.4703	0.884738000000	0.115262
0	0.4706	0.882892000000	0.117108
0	0.4709	0.881031000000	0.118969
0	0.4712	0.882777000000	0.117223
0	0.4715	0.884492000000	0.115508
0	0.4718	0.881869000000	0.118131
0	0.4721	0.881592000000	0.118408
0	0.4724	0.881308000000	0.118692
0	0.4727	0.877808000000	0.122192
0	0.473	0.874392000000	0.125608
0	0.4733	0.871638000000	0.128362
0	0.4736	0.868931000000	0.131069
0	0.4739	0.866254000000	0.133746
0	0.4742	0.860823000000	0.139177
0	0.4745	0.855523000000	0.144477
0	0.4748	0.854885000000	0.145115
0	0.4751	0.848338000000	0.151662
0	0.4754	0.841985000000	0.158015
0	0.4757	0.839192000000	0.160808
0	0.476	0.836400000000	0.1636
0	0.4763	0.830092000000	0.169908
0	0.4766	0.828277000000	0.171723
0	0.4769	0.826477000000	0.173523
0	0.4772	0.832046000000	0.167954
0	0.4775	0.837708000000	0.162292
0	0.4778	0.846246000000	0.153754
0	0.4781	0.854823000000	0.145177
0	0.4784	0.863615000000	0.136385
0	0.4787	0.872615000000	0.127385
0	0.479	0.881877000000	0.118123
0	0.4793	0.891715000000	0.108285
0	0.4796	0.896546000000	0.103454
0	0.4799	0.901454000000	0.098546
0	0.4802	0.907100000000	0.0929
0	0.4805	0.912808000000	0.087192
0	0.4808	0.912838000000	0.087162
0	0.4811	0.912854000000	0.087146
0	0.4814	0.916346000000	0.083654
0	0.4817	0.916992000000	0.083008
0	0.482	0.917623000000	0.082377
0	0.4823	0.918377000000	0.081623
0	0.4826	0.919092000000	0.080908
0	0.4829	0.919062000000	0.080938
0	0.4832	0.920762000000	0.079238
0	0.4835	0.922423000000	0.077577
0	0.4838	0.924054000000	0.075946
0	0.4841	0.925654000000	0.074346
0	0.4844	0.924638000000	0.075362
0	0.4847	0.925300000000	0.0747
0	0.485	0.925977000000	0.074023
0	0.4853	0.923692000000	0.076308
0	0.4856	0.921431000000	0.078569
0	0.4859	0.926108000000	0.073892
0	0.4862	0.923908000000	0.076092
0	0.4865	0.921738000000	0.078262
0	0.4868	0.923669000000	0.076331
0	0.4871	0.925562000000	0.074438
0	0.4874	0.924377000000	0.075623
0	0.4877	0.925354000000	0.074646
0	0.488	0.926354000000	0.073646
0	0.4883	0.927338000000	0.072662
0	0.4886	0.928300000000	0.0717
0	0.4889	0.927585000000	0.072415
0	0.4892	0.928785000000	0.071215
0	0.4895	0.929969000000	0.070031
0	0.4898	0.929715000000	0.070285
0	0.4901	0.929462000000	0.070538
0	0.4904	0.933554000000	0.066446
0	0.4907	0.932708000000	0.067292
0	0.491	0.931892000000	0.068108
0	0.4913	0.933092000000	0.066908
0	0.4916	0.934285000000	0.065715
0	0.4919	0.933815000000	0.066185
0	0.4922	0.934531000000	0.065469
0	0.4925	0.935262000000	0.064738
0	0.4928	0.935531000000	0.064469
0	0.4931	0.935800000000	0.0642
0	0.4934	0.933392000000	0.066608
0	0.4937	0.931292000000	0.068708
0	0.494	0.929185000000	0.070815
0	0.4943	0.928385000000	0.071615
0	0.4946	0.927562000000	0.072438
0	0.4949	0.927162000000	0.072838
0	0.4952	0.926623000000	0.073377
0	0.4955	0.926100000000	0.0739
0	0.4958	0.926562000000	0.073438
0	0.4961	0.927023000000	0.072977
0	0.4964	0.927292000000	0.072708
0	0.4967	0.927638000000	0.072362
0	0.497	0.927977000000	0.072023
0	0.4973	0.927477000000	0.072523
0	0.4976	0.927000000000	0.073
0	0.4979	0.926431000000	0.073569
0	0.4982	0.925438000000	0.074562
0	0.4985	0.924446000000	0.075554
0	0.4988	0.924369000000	0.075631
0	0.4991	0.924300000000	0.0757
0	0.4994	0.925300000000	0.0747
0	0.4997	0.925600000000	0.0744
0	0.5	0.925908000000	0.074092
0	0.5003	0.927008000000	0.072992
0	0.5006	0.928169000000	0.071831
0	0.5009	0.929546000000	0.070454
0	0.5012	0.931754000000	0.068246
0	0.5015	0.933938000000	0.066062
0	0.5018	0.933331000000	0.066669
0	0.5021	0.932708000000	0.067292
0	0.5024	0.934985000000	0.065015
0	0.5027	0.934408000000	0.065592
0	0.503	0.933838000000	0.066162
0	0.5033	0.935508000000	0.064492
0	0.5036	0.937169000000	0.062831
0	0.5039	0.936746000000	0.063254
0	0.5042	0.936054000000	0.063946
0	0.5045	0.935385000000	0.064615
0	0.5048	0.937269000000	0.062731
0	0.5051	0.939115000000	0.060885
0	0.5054	0.939077000000	0.060923
0	0.5057	0.940538000000	0.059462
0	0.506	0.941962000000	0.058038
0	0.5063	0.941815000000	0.058185
0	0.5066	0.941654000000	0.058346
0	0.5069	0.943585000000	0.056415
0	0.5072	0.943838000000	0.056162
0	0.5075	0.944069000000	0.055931
0	0.5078	0.943462000000	0.056538
0	0.5081	0.942838000000	0.057162
0	0.5084	0.940808000000	0.059192
0	0.5087	0.940962000000	0.059038
0	0.509	0.941092000000	0.058908
0	0.5093	0.940685000000	0.059315
0	0.5096	0.940285000000	0.059715
0	0.5099	0.938377000000	0.061623
0	0.5102	0.940146000000	0.059854
0	0.5105	0.941908000000	0.058092
0	0.5108	0.942123000000	0.057877
0	0.5111	0.942308000000	0.057692
0	0.5114	0.942608000000	0.057392
0	0.5117	0.942323000000	0.057677
0	0.512	0.942038000000	0.057962
0	0.5123	0.941800000000	0.0582
0	0.5126	0.941577000000	0.058423
0	0.5129	0.938692000000	0.061308
0	0.5132	0.937200000000	0.0628
0	0.5135	0.935715000000	0.064285
0	0.5138	0.934015000000	0.065985
0	0.5141	0.932323000000	0.067677
0	0.5144	0.931338000000	0.068662
0	0.5147	0.930631000000	0.069369
0	0.515	0.929938000000	0.070062
0	0.5153	0.930108000000	0.069892
0	0.5156	0.930308000000	0.069692
0	0.5159	0.931331000000	0.068669
0	0.5162	0.930485000000	0.069515
0	0.5165	0.929623000000	0.070377
0	0.5168	0.930285000000	0.069715
0	0.5171	0.930954000000	0.069046
0	0.5174	0.929169000000	0.070831
0	0.5177	0.929462000000	0.070538
0	0.518	0.929731000000	0.070269
0	0.5183	0.928546000000	0.071454
0	0.5186	0.927385000000	0.072615
0	0.5189	0.927554000000	0.072446
0	0.5192	0.928162000000	0.071838
0	0.5195	0.928785000000	0.071215
0	0.5198	0.928800000000	0.0712
0	0.5201	0.928808000000	0.071192
0	0.5204	0.931054000000	0.068946
0	0.5207	0.931377000000	0.068623
0	0.521	0.931708000000	0.068292
0	0.5213	0.931908000000	0.068092
0	0.5216	0.932069000000	0.067931
0	0.5219	0.931054000000	0.068946
0	0.5222	0.932638000000	0.067362
0	0.5225	0.934246000000	0.065754
0	0.5228	0.932415000000	0.067585
0	0.5231	0.930615000000	0.069385
0	0.5234	0.930485000000	0.069515
0	0.5237	0.930362000000	0.069638
0	0.524	0.930262000000	0.069738
0	0.5243	0.931231000000	0.068769
0	0.5246	0.932208000000	0.067792
0	0.5249	0.931877000000	0.068123
0	0.5252	0.932277000000	0.067723
0	0.5255	0.932654000000	0.067346
0	0.5258	0.932162000000	0.067838
0	0.5261	0.931677000000	0.068323
0	0.5264	0.929008000000	0.070992
0	0.5267	0.929192000000	0.070808
0	0.527	0.929354000000	0.070646
0	0.5273	0.927015000000	0.072985
0	0.5276	0.924669000000	0.075331
0	0.5279	0.923715000000	0.076285
0	0.5282	0.922962000000	0.077038
0	0.5285	0.922200000000	0.0778
0	0.5288	0.920977000000	0.079023
0	0.5291	0.919738000000	0.080262
0	0.5294	0.920438000000	0.079562
0	0.5297	0.919769000000	0.080231
0	0.53	0.919131000000	0.080869
0	0.5303	0.919785000000	0.080215
0	0.5306	0.920446000000	0.079554
0	0.5309	0.920677000000	0.079323
0	0.5312	0.922308000000	0.077692
0	0.5315	0.923946000000	0.076054
0	0.5318	0.923331000000	0.076669
0	0.5321	0.922700000000	0.0773
0	0.5324	0.924838000000	0.075162
0	0.5327	0.925031000000	0.074969
0	0.533	0.925254000000	0.074746
0	0.5333	0.927346000000	0.072654
0	0.5336	0.929462000000	0.070538
0	0.5339	0.929738000000	0.070262
0	0.5342	0.931008000000	0.068992
0	0.5345	0.932277000000	0.067723
0	0.5348	0.933954000000	0.066046
0	0.5351	0.935608000000	0.064392
0	0.5354	0.936223000000	0.063777
0	0.5357	0.939015000000	0.060985
0	0.536	0.941808000000	0.058192
0	0.5363	0.942708000000	0.057292
0	0.5366	0.943600000000	0.0564
0	0.5369	0.945908000000	0.054092
0	0.5372	0.945431000000	0.054569
0	0.5375	0.944985000000	0.055015
0	0.5378	0.946523000000	0.053477
0	0.5381	0.948054000000	0.051946
0	0.5384	0.947746000000	0.052254
0	0.5387	0.947669000000	0.052331
0	0.539	0.947631000000	0.052369
0	0.5393	0.947131000000	0.052869
0	0.5396	0.946638000000	0.053362
0	0.5399	0.946169000000	0.053831
0	0.5402	0.946115000000	0.053885
0	0.5405	0.946054000000	0.053946
0	0.5408	0.945346000000	0.054654
0	0.5411	0.944669000000	0.055331
0	0.5414	0.944177000000	0.055823
0	0.5417	0.941977000000	0.058023
0	0.542	0.939800000000	0.0602
0	0.5423	0.940754000000	0.059246
0	0.5426	0.941669000000	0.058331
0	0.5429	0.937723000000	0.062277
0	0.5432	0.936538000000	0.063462
0	0.5435	0.935377000000	0.064623
0	0.5438	0.933185000000	0.066815
0	0.5441	0.930985000000	0.069015
0	0.5444	0.929177000000	0.070823
0	0.5447	0.928085000000	0.071915
0	0.545	0.926969000000	0.073031
0	0.5453	0.924231000000	0.075769
0	0.5456	0.921531000000	0.078469
0	0.5459	0.920446000000	0.079554
0	0.5462	0.918615000000	0.081385
0	0.5465	0.916808000000	0.083192
0	0.5468	0.918123000000	0.081877
0	0.5471	0.919438000000	0.080562
0	0.5474	0.917746000000	0.082254
0	0.5477	0.919000000000	0.081
0	0.548	0.920246000000	0.079754
0	0.5483	0.923385000000	0.076615
0	0.5486	0.926508000000	0.073492
0	0.5489	0.926915000000	0.073085
0	0.5492	0.929708000000	0.070292
0	0.5495	0.932446000000	0.067554
0	0.5498	0.934192000000	0.065808
0	0.5501	0.935923000000	0.064077
0	0.5504	0.938038000000	0.061962
0	0.5507	0.938585000000	0.061415
0	0.551	0.939115000000	0.060885
0	0.5513	0.934008000000	0.065992
0	0.5516	0.928931000000	0.071069
0	0.5519	0.920446000000	0.079554
0	0.5522	0.898954000000	0.101046
0	0.5525	0.877569000000	0.122431
0	0.5528	0.840815000000	0.159185
0	0.5531	0.804123000000	0.195877
0	0.5534	0.752323000000	0.247677
0	0.5537	0.695354000000	0.304646
0	0.554	0.638562000000	0.361438
0	0.5543	0.579669000000	0.420331
0	0.5546	0.520915000000	0.479085
0	0.5549	0.465938000000	0.534062
0	0.5552	0.415585000000	0.584415
0	0.5555	0.365392000000	0.634608
0	0.5558	0.321785000000	0.678215
0	0.5561	0.278223000000	0.721777
0	0.5564	0.240092000000	0.759908
0	0.5567	0.208362000000	0.791638
0	0.557	0.176677000000	0.823323
0	0.5573	0.153248000000	0.846752
0	0.5576	0.129804000000	0.870196
0	0.5579	0.110721000000	0.889279
0	0.5582	0.096170000000	0.90383
0	0.5585	0.081628500000	0.9183715
0	0.5588	0.070862300000	0.9291377
0	0.5591	0.060129200000	0.9398708
0	0.5594	0.051817700000	0.9481823
0	0.5597	0.044988500000	0.9550115
0	0.56	0.038171500000	0.9618285
0	0.5603	0.033304600000	0.9666954
0	0.5606	0.028466900000	0.9715331
0	0.5609	0.024986900000	0.9750131
0	0.5612	0.022023100000	0.9779769
0	0.5615	0.019080000000	0.98092
0	0.5618	0.017082200000	0.9829178
0	0.5621	0.015086200000	0.9849138
0	0.5624	0.013123000000	0.986877
0	0.5627	0.011867500000	0.9881325
0	0.563	0.010616100000	0.9893839
0	0.5633	0.009755690000	0.99024431
0	0.5636	0.008902770000	0.99109723
0	0.5639	0.008314920000	0.99168508
0	0.5642	0.007791230000	0.99220877
0	0.5645	0.007270620000	0.99272938
0	0.5648	0.006708150000	0.99329185
0	0.5651	0.006147310000	0.99385269
0	0.5654	0.005472000000	0.994528
0	0.5657	0.005115380000	0.99488462
0	0.566	0.004759230000	0.99524077
0	0.5663	0.004386920000	0.99561308
0	0.5666	0.004015540000	0.99598446
0	0.5669	0.003417380000	0.99658262
0	0.5672	0.003103000000	0.996897
0	0.5675	0.002788080000	0.99721192
0	0.5678	0.002535540000	0.99746446
0	0.5681	0.002283770000	0.99771623
0	0.5684	0.002264770000	0.99773523
0	0.5687	0.002103050000	0.99789695
0	0.569	0.001946850000	0.99805315
0	0.5693	0.001777540000	0.99822246
0	0.5696	0.001613770000	0.99838623
0	0.5699	0.001575850000	0.99842415
0	0.5702	0.001488250000	0.99851175
0	0.5705	0.001400870000	0.99859913
0	0.5708	0.001240360000	0.99875964
0	0.5711	0.001105350000	0.99889465
0	0.5714	0.000978264000	0.999021736
0	0.5717	0.001068620000	0.99893138
0	0.572	0.001158730000	0.99884127
0	0.5723	0.000957664000	0.999042336
0	0.5726	0.000774685000	0.999225315
0	0.5729	0.001013490000	0.99898651
0	0.5732	0.000902077000	0.999097923
0	0.5735	0.000791065000	0.999208935
0	0.5738	0.000723131000	0.999276869
0	0.5741	0.000723723000	0.999276277
0	0.5744	0.000530990000	0.99946901
0	0.5747	0.000490677000	0.999509323
0	0.575	0.000486831000	0.999513169
0	0.5753	0.000359305000	0.999640695
0	0.5756	0.000290562000	0.999709438
0	0.5759	0.000555162000	0.999444838
0	0.5762	0.000503179000	0.999496821
0	0.5765	0.000530808000	0.999469192
0	0.5768	0.000413915000	0.999586085
0	0.5771	0.000379200000	0.9996208
0	0.5774	0.000350745000	0.999649255
0	0.5777	0.000229910000	0.99977009
0	0.578	0.000214862000	0.999785138
0	0.5783	0.000305192000	0.999694808
0	0.5786	0.000454831000	0.999545169
0	0.5789	0.000540277000	0.999459723
0	0.5792	0.000508808000	0.999491192
0	0.5795	0.000596162000	0.999403838
0	0.5798	0.000571454000	0.999428546
0	0.5801	0.000561145000	0.999438855
0	0.5804	0.000500569000	0.999499431
0	0.5807	0.000489685000	0.999510315
0	0.581	0.000575377000	0.999424623
0	0.5813	0.000636131000	0.999363869
0	0.5816	0.000699154000	0.999300846
0	0.5819	0.000541285000	0.999458715
0	0.5822	0.000383825000	0.999616175
0	0.5825	0.000201992000	0.999798008
0	0.5828	0.000281762000	0.999718238
0	0.5831	0.000450162000	0.999549838
0	0.5834	0.000327938000	0.999672062
0	0.5837	0.000285496000	0.999714504
0	0.584	0.000545819000	0.999454181
0	0.5843	0.000439577000	0.999560423
0	0.5846	0.000382992000	0.999617008
0	0.5849	0.000352568000	0.999647432
0	0.5852	0.000324504000	0.999675496
0	0.5855	0.000307700000	0.9996923
0	0.5858	0.000209431000	0.999790569
0	0.5861	0.000213708000	0.999786292
0	0.5864	0.000155583000	0.999844417
0	0.5867	0.000153200000	0.9998468
0	0.587	0.000255168000	0.999744832
0	0.5873	0.000285328000	0.999714672
0	0.5876	0.000354709000	0.999645291
0	0.5879	0.000338069000	0.999661931
0	0.5882	0.000365446000	0.999634554
0	0.5885	0.000353815000	0.999646185
0	0.5888	0.000365872000	0.999634128
0	0.5891	0.000465263000	0.999534737
0	0.5894	0.000511669000	0.999488331
0	0.5897	0.000638862000	0.999361138
0	0.59	0.000524669000	0.999475331
0	0.5903	0.000380500000	0.9996195
0	0.5906	0.000317248000	0.999682752
0	0.5909	0.000280077000	0.999719923
0	0.5912	0.000334769000	0.999665231
0	0.5915	0.000311631000	0.999688369
0	0.5918	0.000306000000	0.999694
0	0.5921	0.000371338000	0.999628662
0	0.5924	0.000287408000	0.999712592
0	0.5927	0.000267862000	0.999732138
0	0.593	0.000302288000	0.999697712
0	0.5933	0.000328591000	0.999671409
0	0.5936	0.000450900000	0.9995491
0	0.5939	0.000389215000	0.999610785
0	0.5942	0.000451131000	0.999548869
0	0.5945	0.000425208000	0.999574792
0	0.5948	0.000353446000	0.999646554
0	0.5951	0.000329762000	0.999670238
0	0.5954	0.000276060000	0.99972394
0	0.5957	0.000341421000	0.999658579
0	0.596	0.000653492000	0.999346508
0	0.5963	0.000397546000	0.999602454
0	0.5966	0.000284309000	0.999715691
0	0.5969	0.000300617000	0.999699383
0	0.5972	0.000330669000	0.999669331
0	0.5975	0.000358839000	0.999641161
0	0.5978	0.000321838000	0.999678162
0	0.5981	0.000337795000	0.999662205
0	0.5984	0.000236983000	0.999763017
0	0.5987	0.000350271000	0.999649729
0	0.599	0.000331746000	0.999668254
0	0.5993	0.000306695000	0.999693305
0	0.5996	0.000325395000	0.999674605
0	0.5999	0.000284975000	0.999715025
0	0.6002	0.000279204000	0.999720796
0	0.6005	0.000291145000	0.999708855
0	0.6008	0.000293552000	0.999706448
0	0.6011	0.000385923000	0.999614077
0	0.6014	0.000351400000	0.9996486
0	0.6017	0.000358624000	0.999641376
0	0.602	0.000332645000	0.999667355
0	0.6023	0.000354676000	0.999645324
0	0.6026	0.000441189000	0.999558811
0	0.6029	0.000443660000	0.99955634
0	0.6032	0.000473838000	0.999526162
0	0.6035	0.000193684000	0.999806316
0	0.6038	0.000199787000	0.999800213
0	0.6041	0.000332854000	0.999667146
0	0.6044	0.000181062000	0.999818938
0	0.6047	0.000142874000	0.999857126
0	0.605	0.000283452000	0.999716548
0	0.6053	0.000250992000	0.999749008
0	0.6056	0.000338185000	0.999661815
0	0.6059	0.000240341000	0.999759659
0	0.6062	0.000264539000	0.999735461
0	0.6065	0.000374993000	0.999625007
0	0.6068	0.000348215000	0.999651785
0	0.6071	0.000383477000	0.999616523
0	0.6074	0.000295058000	0.999704942
0	0.6077	0.000227461000	0.999772539
0	0.608	0.000424077000	0.999575923
0	0.6083	0.000391415000	0.999608585
0	0.6086	0.000492008000	0.999507992
0	0.6089	0.000322323000	0.999677677
0	0.6092	0.000270800000	0.9997292
0	0.6095	0.000432308000	0.999567692
0	0.6098	0.000297514000	0.999702486
0	0.6101	0.000284952000	0.999715048
0	0.6104	0.000282939000	0.999717061
0	0.6107	0.000333746000	0.999666254
0	0.611	0.000434885000	0.999565115
0	0.6113	0.000394977000	0.999605023
0	0.6116	0.000398915000	0.999601085
0	0.6119	0.000378295000	0.999621705
0	0.6122	0.000525562000	0.999474438
0	0.6125	0.000496618000	0.999503382
0	0.6128	0.000491802000	0.999508198
0	0.6131	0.000530895000	0.999469105
0	0.6134	0.000234642000	0.999765358
0	0.6137	0.000139095000	0.999860905
0	0.614	0.000473915000	0.999526085
0	0.6143	0.000385583000	0.999614417
0	0.6146	0.000353351000	0.999646649
0	0.6149	0.000327386000	0.999672614
0	0.6152	0.000331692000	0.999668308
0	0.6155	0.000498855000	0.999501145
0	0.6158	0.000421877000	0.999578123
0	0.6161	0.000438423000	0.999561577
0	0.6164	0.000267165000	0.999732835
0	0.6167	0.000269931000	0.999730069
0	0.617	0.000423560000	0.99957644
0	0.6173	0.000435915000	0.999564085
0	0.6176	0.000448331000	0.999551669
0	0.6179	0.000297731000	0.999702269
0	0.6182	0.000222906000	0.999777094
0	0.6185	0.000459008000	0.999540992
0	0.6188	0.000493788000	0.999506212
0	0.6191	0.000571438000	0.999428562
0	0.6194	0.000447754000	0.999552246
0	0.6197	0.000419859000	0.999580141
0	0.62	0.000361877000	0.999638123
0	0.6203	0.000348034000	0.999651966
0	0.6206	0.000446586000	0.999553414
0	0.6209	0.000356429000	0.999643571
0	0.6212	0.000379200000	0.9996208
0	0.6215	0.000567138000	0.999432862
0	0.6218	0.000391562000	0.999608438
0	0.6221	0.000377642000	0.999622358
0	0.6224	0.000370470000	0.99962953
0	0.6227	0.000421077000	0.999578923
0	0.623	0.000486916000	0.999513084
0	0.6233	0.000409766000	0.999590234
0	0.6236	0.000419569000	0.999580431
0	0.6239	0.000386569000	0.999613431
0	0.6242	0.000423738000	0.999576262
0	0.6245	0.000225323000	0.999774677
0	0.6248	0.000286315000	0.999713685
0	0.6251	0.000386069000	0.999613931
0	0.6254	0.000249787000	0.999750213
0	0.6257	0.000245118000	0.999754882
0	0.626	0.000226101000	0.999773899
0	0.6263	0.000226172000	0.999773828
0	0.6266	0.000250585000	0.999749415
0	0.6269	0.000294856000	0.999705144
0	0.6272	0.000385215000	0.999614785
0	0.6275	0.000246669000	0.999753331
0	0.6278	0.000175775000	0.999824225
0	0.6281	0.000226973000	0.999773027
0	0.6284	0.000322962000	0.999677038
0	0.6287	0.000516438000	0.999483562
0	0.629	0.000306533000	0.999693467
0	0.6293	0.000245431000	0.999754569
0	0.6296	0.000255523000	0.999744477
0	0.6299	0.000267792000	0.999732208
0	0.6302	0.000495778000	0.999504222
0	0.6305	0.000378769000	0.999621231
0	0.6308	0.000311485000	0.999688515
0	0.6311	0.000318081000	0.999681919
0	0.6314	0.000284793000	0.999715207
0	0.6317	0.000340343000	0.999659657
0	0.632	0.000196978000	0.999803022
0	0.6323	0.000254065000	0.999745935
0	0.6326	0.000478605000	0.999521395
0	0.6329	0.000280271000	0.999719729
0	0.6332	0.000207615000	0.999792385
0	0.6335	0.000266952000	0.999733048
0	0.6338	0.000223952000	0.999776048
0	0.6341	0.000317102000	0.999682898
0	0.6344	0.000175691000	0.999824309
0	0.6347	0.000178142000	0.999821858
0	0.635	0.000359255000	0.999640745
0	0.6353	0.000259930000	0.99974007
0	0.6356	0.000220287000	0.999779713
0	0.6359	0.000208363000	0.999791637
0	0.6362	0.000317923000	0.999682077
0	0.6365	0.000170884000	0.999829116
0	0.6368	0.000128758000	0.999871242
0	0.6371	0.000220415000	0.999779585
0	0.6374	0.000209484000	0.999790516
0	0.6377	0.000307700000	0.9996923
0	0.638	0.000408592000	0.999591408
0	0.6383	0.000385418000	0.999614582
0	0.6386	0.000446469000	0.999553531
0	0.6389	0.000392297000	0.999607703
0	0.6392	0.000417315000	0.999582685
0	0.6395	0.000259828000	0.999740172
0	0.6398	0.000215231000	0.999784769
0	0.6401	0.000336277000	0.999663723
0	0.6404	0.000225011000	0.999774989
0	0.6407	0.000217578000	0.999782422
0	0.641	0.000123438000	0.999876562
0	0.6413	0.000256946000	0.999743054
0	0.6416	0.000546485000	0.999453515
0	0.6419	0.000389173000	0.999610827
0	0.6422	0.000281477000	0.999718523
0	0.6425	0.000231781000	0.999768219
0	0.6428	0.000335246000	0.999664754
0	0.6431	0.000547131000	0.999452869
0	0.6434	0.000410246000	0.999589754
0	0.6437	0.000389163000	0.999610837
0	0.644	0.000325529000	0.999674471
0	0.6443	0.000241500000	0.9997585
0	0.6446	0.000238810000	0.99976119
0	0.6449	0.000367122000	0.999632878
0	0.6452	0.000562181000	0.999437819
0	0.6455	0.000336458000	0.999663542
0	0.6458	0.000270078000	0.999729922
0	0.6461	0.000306904000	0.999693096
0	0.6464	0.000171709000	0.999828291
0	0.6467	0.000169054000	0.999830946
0	0.647	0.000387091000	0.999612909
0	0.6473	0.000238895000	0.999761105
0	0.6476	0.000200947000	0.999799053
0	0.6479	0.000189686000	0.999810314
0	0.6482	0.000303096000	0.999696904
0	0.6485	0.000312787000	0.999687213
0	0.6488	0.000229302000	0.999770698
0	0.6491	0.000221590000	0.99977841
0	0.6494	0.000153436000	0.999846564
0	0.6497	0.000241138000	0.999758862
0	0.65	0.000279679000	0.999720321
0	0.6503	0.000099274600	0.999900725
0	0.6506	0.000034214600	0.999965785
0	0.6509	0.000046015400	0.999953985
0	0.6512	0.000101002000	0.999898998
0	0.6515	0.000126863000	0.999873137
0	0.6518	0.000064953100	0.999935047
0	0.6521	0.000042146900	0.999957853
0	0.6524	0.000039673900	0.999960326
0	0.6527	0.000100287000	0.999899713
0	0.653	0.000074320800	0.999925679
0	0.6533	0.000039549200	0.999960451
0	0.6536	0.000066092300	0.999933908
0	0.6539	0.000050372300	0.999949628
0	0.6542	0.000054786100	0.999945214
0	0.6545	0.000058690800	0.999941309
0	0.6548	0.000058270800	0.999941729
0	0.6551	0.000091479200	0.999908521
0	0.6554	0.000044128500	0.999955872
0	0.6557	0.000056963900	0.999943036
0	0.656	0.000116115000	0.999883885
0	0.6563	0.000067143100	0.999932857
0	0.6566	0.000056729200	0.999943271
0	0.6569	0.000068314600	0.999931685
0	0.6572	0.000101478000	0.999898522
0	0.6575	0.000118776000	0.999881224
0	0.6578	0.000068896900	0.999931103
0	0.6581	0.000066933800	0.999933066
0	0.6584	0.000057343900	0.999942656
0	0.6587	0.000082015400	0.999917985
0	0.659	0.000089067700	0.999910932
0	0.6593	0.000079457700	0.999920542
0	0.6596	0.000099247700	0.999900752
0	0.6599	0.000060715400	0.999939285
0	0.6602	0.000073030800	0.999926969
0	0.6605	0.000093494600	0.999906505
0	0.6608	0.000069337700	0.999930662
0	0.6611	0.000106962000	0.999893038
0	0.6614	0.000093470800	0.999906529
0	0.6617	0.000106930000	0.99989307
0	0.662	0.000064074600	0.999935925
0	0.6623	0.000061695200	0.999938305
0	0.6626	0.000078263100	0.999921737
0	0.6629	0.000026427000	0.999973573
0	0.6632	0.000017375400	0.999982625
0	0.6635	0.000083745400	0.999916255
0	0.6638	0.000039515400	0.999960485
0	0.6641	0.000022922300	0.999977078
0	0.6644	0.000065252700	0.999934747
0	0.6647	0.000142910000	0.99985709
0	0.665	0.000092229200	0.999907771
0	0.6653	0.000075709200	0.999924291
0	0.6656	0.000081256100	0.999918744
0	0.6659	0.000055183800	0.999944816
0	0.6662	0.000095264600	0.999904735
0	0.6665	0.000027552300	0.999972448
0	0.6668	0.000036248500	0.999963752
0	0.6671	0.000072463100	0.999927537
0	0.6674	0.000049976200	0.999950024
0	0.6677	0.000044850800	0.999955149
0	0.668	0.000108544000	0.999891456
0	0.6683	0.000093254600	0.999906745
0	0.6686	0.000110251000	0.999889749
0	0.6689	0.000083811500	0.999916189
0	0.6692	0.000097590000	0.99990241
0	0.6695	0.000085775400	0.999914225
0	0.6698	0.000073985400	0.999926015
0	0.6701	0.000089787700	0.999910212
0	0.6704	0.000062516900	0.999937483
0	0.6707	0.000063668500	0.999936332
0	0.671	0.000060570000	0.99993943
0	0.6713	0.000048056100	0.999951944
0	0.6716	0.000108832000	0.999891168
0	0.6719	0.000082686900	0.999917313
0	0.6722	0.000091283100	0.999908717
0	0.6725	0.000100699000	0.999899301
0	0.6728	0.000066896200	0.999933104
0	0.6731	0.000091417700	0.999908582
0	0.6734	0.000073659200	0.999926341
0	0.6737	0.000076400800	0.999923599
0	0.674	0.000043270000	0.99995673
0	0.6743	0.000032277200	0.999967723
0	0.6746	0.000073243100	0.999926757
0	0.6749	0.000047227700	0.999952772
0	0.6752	0.000080151500	0.999919849
0	0.6755	0.000082600800	0.999917399
0	0.6758	0.000061783100	0.999938217
0	0.6761	0.000056740000	0.99994326
0	0.6764	0.000043331500	0.999956669
0	0.6767	0.000044133100	0.999955867
0	0.677	0.000022863100	0.999977137
0	0.6773	0.000043423100	0.999956577
0	0.6776	0.000107265000	0.999892735
0	0.6779	0.000095037700	0.999904962
0	0.6782	0.000118277000	0.999881723
0	0.6785	0.000071838500	0.999928162
0	0.6788	0.000062372300	0.999937628
0	0.6791	0.000084496900	0.999915503
0	0.6794	0.000059625600	0.999940374
0	0.6797	0.000063975400	0.999936025
0	0.68	0.000111597000	0.999888403
0	0.681	0.000000393543	0.999999606
0	0.682	0.000001376970	0.999998623
0	0.683	0.000001930520	0.999998069
0	0.684	0.000000988703	0.999999011
0	0.685	0.000000171012	0.999999829
0	0.686	0.000000206509	0.999999793
0	0.687	0.000000079926	0.99999992
0	0.688	0.000000015090	0.999999985
0	0.689	0.000000265390	0.999999735
0	0.69	0.000000117808	0.999999882
0	0.691	0.000000187582	0.999999812
0	0.692	0.000000151547	0.999999848
0	0.693	0.000000103572	0.999999896
0	0.694	0.000000118315	0.999999882
0	0.695	0.000000125425	0.999999875
0	0.696	0.000006372490	0.999993628
0	0.697	0.000026865100	0.999973135
0	0.698	0.000035505900	0.999964494
0	0.699	0.000016062400	0.999983938
0	0.7	0.000002880340	0.99999712
0	0.701	0.000007002420	0.999992998
0	0.702	0.000010787100	0.999989213
0	0.703	0.000006942240	0.999993058
0	0.704	0.000001696710	0.999998303
0	0.705	0.000000590989	0.999999409
0	0.706	0.000000403239	0.999999597
0	0.707	0.000000240060	0.99999976
0	0.708	0.000000212447	0.999999788
0	0.709	0.000000562742	0.999999437
0	0.71	0.000000328067	0.999999672
0	0.711	0.000000447969	0.999999552
0	0.712	0.000000827686	0.999999172
0	0.713	0.000005072580	0.999994927
0	0.714	0.000022269500	0.999977731
0	0.715	0.000032097200	0.999967903
0	0.716	0.000016124600	0.999983875
0	0.717	0.000002010520	0.999997989
0	0.718	0.000000909020	0.999999091
0	0.719	0.000000769124	0.999999231
0	0.72	0.000000831674	0.999999168
0	0.721	0.000000916657	0.999999083
0	0.722	0.000001271700	0.999998728
0	0.723	0.000002083210	0.999997917
0	0.724	0.000003402090	0.999996598
0	0.725	0.000004295330	0.999995705
0	0.726	0.000003243350	0.999996757
0	0.727	0.000002014660	0.999997985
0	0.728	0.000001129800	0.99999887
0	0.729	0.000000815221	0.999999185
0	0.73	0.000001013380	0.999998987
0	0.731	0.000000961726	0.999999038
0	0.732	0.000001179770	0.99999882
0	0.733	0.000002266640	0.999997733
0	0.734	0.000009752660	0.999990247
0	0.735	0.000031416800	0.999968583
0	0.736	0.000040667900	0.999959332
0	0.737	0.000020051300	0.999979949
0	0.738	0.000003670110	0.99999633
0	0.739	0.000001841620	0.999998158
0	0.74	0.000000766842	0.999999233
0	0.741	0.000000983054	0.999999017
0	0.742	0.000000973399	0.999999027
0	0.743	0.000000763074	0.999999237
0	0.744	0.000001010220	0.99999899
0	0.745	0.000000923300	0.999999077
0	0.746	0.000001256310	0.999998744
0	0.747	0.000001780160	0.99999822
0	0.748	0.000002622920	0.999997377
0	0.749	0.000005013630	0.999994986
0	0.75	0.000010780000	0.99998922
0	0.751	0.000029029000	0.999970971
0	0.752	0.000090341600	0.999909658
0	0.753	0.000236849000	0.999763151
0	0.754	0.000394782000	0.999605218
0	0.755	0.000409832000	0.999590168
0	0.756	0.000302092000	0.999697908
0	0.757	0.000196159000	0.999803841
0	0.758	0.000144151000	0.999855849
0	0.759	0.000132472000	0.999867528
0	0.76	0.000127128000	0.999872872
0	0.761	0.000097843200	0.999902157
0	0.762	0.000050042700	0.999949957
0	0.763	0.000017645900	0.999982354
0	0.764	0.000006450580	0.999993549
0	0.765	0.000003242070	0.999996758
0	0.766	0.000001989590	0.99999801
0	0.767	0.000000982406	0.999999018
0	0.768	0.000000539262	0.999999461
0	0.769	0.000000655173	0.999999345
0	0.77	0.000000606378	0.999999394
0	0.771	0.000000611854	0.999999388
0	0.772	0.000000347614	0.999999652
0	0.773	0.000000297957	0.999999702
0	0.774	0.000000552274	0.999999448
0	0.775	0.000000499440	0.999999501
0	0.776	0.000000709437	0.999999291
0	0.777	0.000000523803	0.999999476
0	0.778	0.000000575733	0.999999424
0	0.779	0.000000239325	0.999999761
0	0.78	0.000000263689	0.999999736
0	0.781	0.000000554754	0.999999445
0	0.782	0.000001193770	0.999998806
0	0.783	0.000003414330	0.999996586
0	0.784	0.000008889710	0.99999111
0	0.785	0.000031775400	0.999968225
0	0.786	0.000053393200	0.999946607
0	0.787	0.000039128800	0.999960871
0	0.788	0.000014643700	0.999985356
0	0.789	0.000006572470	0.999993428
0	0.79	0.000004000310	0.999996
0	0.791	0.000003489270	0.999996511
0	0.792	0.000003719800	0.99999628
0	0.793	0.000003950980	0.999996049
0	0.794	0.000003060470	0.99999694
0	0.795	0.000002571600	0.999997428
0	0.796	0.000002816890	0.999997183
0	0.797	0.000001973100	0.999998027
0	0.798	0.000001792420	0.999998208
0	0.799	0.000001542730	0.999998457
0	0.8	0.000000701414	0.999999299
0	0.801	0.000001007870	0.999998992
0	0.802	0.000001362960	0.999998637
0	0.803	0.000000198890	0.999999801
0	0.804	0.000000000100	1
0	0.805	0.000000057195	0.999999943
0	0.806	0.000000000100	1
0	0.807	0.000000000100	1
0	0.808	0.000000000100	1
0	0.809	0.000000000100	1
0	0.81	0.000000349802	0.99999965
0	0.811	0.000000000100	1
0	0.812	0.000000000100	1
0	0.813	0.000000000100	1
0	0.814	0.000000159426	0.999999841
0	0.815	0.000000228121	0.999999772
0	0.816	0.000000000100	1
0	0.817	0.000000000100	1
0	0.818	0.000000000100	1
0	0.819	0.000000000100	1
0	0.82	0.000000000100	1
0	0.821	0.000000000100	1
0	0.822	0.000000000100	1
0	0.823	0.000000000100	1
0	0.824	0.000000000100	1
0	0.825	0.000000000100	1
0	0.826	0.000000000100	1
0	0.827	0.000000000100	1
0	0.828	0.000000648364	0.999999352
0	0.829	0.000000000100	1
0	0.83	0.000000000100	1
0	0.831	0.000000000100	1
0	0.832	0.000000000100	1
0	0.833	0.000000000100	1
0	0.834	0.000000000100	1
0	0.835	0.000000000100	1
0	0.836	0.000000000100	1
0	0.837	0.000000000100	1
0	0.838	0.000000944930	0.999999055
0	0.839	0.000000000100	1
0	0.84	0.000001026170	0.999998974
0	0.841	0.000000000100	1
0	0.842	0.000000992614	0.999999007
0	0.843	0.000000041466	0.999999959
0	0.844	0.000000000100	1
0	0.845	0.000000977182	0.999999023
0	0.846	0.000000000100	1
0	0.847	0.000000097550	0.999999902
0	0.848	0.000000075272	0.999999925
0	0.849	0.000000297315	0.999999703
0	0.85	0.000000659583	0.99999934
0	0.851	0.000000000100	1
0	0.852	0.000000000100	1
0	0.853	0.000000000100	1
0	0.854	0.000002572990	0.999997427
0	0.855	0.000044856400	0.999955144
0	0.856	0.000020707600	0.999979292
0	0.857	0.000039306700	0.999960693
0	0.858	0.000042559100	0.999957441
0	0.859	0.000037878700	0.999962121
0	0.86	0.000037889300	0.999962111
0	0.861	0.000036105100	0.999963895
0	0.862	0.000042690700	0.999957309
0	0.863	0.000024540500	0.99997546
0	0.864	0.000048818000	0.999951182
0	0.865	0.000031535600	0.999968464
0	0.866	0.000015854100	0.999984146
0	0.867	0.000032034000	0.999967966
0	0.868	0.000034670800	0.999965329
0	0.869	0.000033458500	0.999966542
0	0.87	0.000023424700	0.999976575
0	0.871	0.000036465500	0.999963535
0	0.872	0.000023404200	0.999976596
0	0.873	0.000045780200	0.99995422
0	0.874	0.000006503730	0.999993496
0	0.875	0.000027862500	0.999972138
0	0.876	0.000000000100	1
0	0.877	0.000000000100	1
0	0.878	0.000034188600	0.999965811
0	0.879	0.000029095300	0.999970905
0	0.88	0.000022809700	0.99997719
0	0.881	0.000026257500	0.999973743
0	0.882	0.000000000100	1
0	0.883	0.000025867900	0.999974132
0	0.884	0.000019573000	0.999980427
0	0.885	0.000020827400	0.999979173
0	0.886	0.000028093300	0.999971907
0	0.887	0.000003613090	0.999996387
0	0.888	0.000009457920	0.999990542
0	0.889	0.000023241600	0.999976758
0	0.89	0.000011743200	0.999988257
0	0.891	0.000003496840	0.999996503
0	0.892	0.000009864910	0.999990135
0	0.893	0.000018332100	0.999981668
0	0.894	0.000020757200	0.999979243
0	0.895	0.000021173000	0.999978827
0	0.896	0.000016202000	0.999983798
0	0.897	0.000014241200	0.999985759
0	0.898	0.000011937200	0.999988063
0	0.899	0.000015418800	0.999984581
0	0.9	0.000009215940	0.999990784
0	0.901	0.000019321200	0.999980679
0	0.902	0.000017955500	0.999982045
0	0.903	0.000010284500	0.999989716
0	0.904	0.000013804400	0.999986196
0	0.905	0.000013657000	0.999986343
0	0.906	0.000005251360	0.999994749
0	0.907	0.000009257950	0.999990742
0	0.908	0.000008418920	0.999991581
0	0.909	0.000016111600	0.999983888
0	0.91	0.000019099100	0.999980901
0	0.911	0.000020556700	0.999979443
0	0.912	0.000005095180	0.999994905
0	0.913	0.000013704600	0.999986295
0	0.914	0.000004607340	0.999995393
0	0.915	0.000004174940	0.999995825
0	0.916	0.000013284500	0.999986716
0	0.917	0.000011130400	0.99998887
0	0.918	0.000004580950	0.999995419
0	0.919	0.000007928850	0.999992071
0	0.92	0.000005924310	0.999994076
0	0.921	0.000006143560	0.999993856
0	0.922	0.000000400553	0.999999599
0	0.923	0.000003985410	0.999996015
0	0.924	0.000013197800	0.999986802
0	0.925	0.000012082200	0.999987918
0	0.926	0.000006754490	0.999993246
0	0.927	0.000013169600	0.99998683
0	0.928	0.000006286590	0.999993713
0	0.929	0.000009912200	0.999990088
0	0.93	0.000011058700	0.999988941
0	0.931	0.000010303100	0.999989697
0	0.932	0.000007283650	0.999992716
0	0.933	0.000012869200	0.999987131
0	0.934	0.000012238300	0.999987762
0	0.935	0.000004133500	0.999995867
0	0.936	0.000005864820	0.999994135
0	0.937	0.000004728250	0.999995272
0	0.938	0.000007667720	0.999992332
0	0.939	0.000008220890	0.999991779
0	0.94	0.000010455600	0.999989544
0	0.941	0.000006963380	0.999993037
0	0.942	0.000006678040	0.999993322
0	0.943	0.000007821280	0.999992179
0	0.944	0.000009873470	0.999990127
0	0.945	0.000008273220	0.999991727
0	0.946	0.000010319300	0.999989681
0	0.947	0.000006891890	0.999993108
0	0.948	0.000009973420	0.999990027
0	0.949	0.000005999040	0.999994001
0	0.95	0.000002788540	0.999997211
0	0.951	0.000009348790	0.999990651
0	0.952	0.000009283730	0.999990716
0	0.953	0.000008154650	0.999991845
0	0.954	0.000010950300	0.99998905
0	0.955	0.000006504200	0.999993496
0	0.956	0.000006699540	0.9999933
0	0.957	0.000009559930	0.99999044
0	0.958	0.000009018210	0.999990982
0	0.959	0.000009190210	0.99999081
0	0.96	0.000011583500	0.999988417
0	0.961	0.000008806510	0.999991193
0	0.962	0.000011418100	0.999988582
0	0.963	0.000009807330	0.999990193
0	0.964	0.000004944050	0.999995056
0	0.965	0.000010786800	0.999989213
0	0.966	0.000008061140	0.999991939
0	0.967	0.000007520360	0.99999248
0	0.968	0.000011612700	0.999988387
0	0.969	0.000009458550	0.999990541
0	0.97	0.000011261200	0.999988739
0	0.971	0.000013005400	0.999986995
0	0.972	0.000009358740	0.999990641
0	0.973	0.000014560600	0.999985439
0	0.974	0.000010090600	0.999989909
0	0.975	0.000014851900	0.999985148
0	0.976	0.000013458900	0.999986541
0	0.977	0.000015464500	0.999984536
0	0.978	0.000016132100	0.999983868
0	0.979	0.000015746700	0.999984253
0	0.98	0.000011989300	0.999988011
0	0.981	0.000015216800	0.999984783
0	0.982	0.000017244200	0.999982756
0	0.983	0.000016426800	0.999983573
0	0.984	0.000015401700	0.999984598
0	0.985	0.000017993100	0.999982007
0	0.986	0.000014054300	0.999985946
0	0.987	0.000016510300	0.99998349
0	0.988	0.000016901500	0.999983099
0	0.989	0.000021285000	0.999978715
0	0.99	0.000020159300	0.999979841
0	0.991	0.000021824300	0.999978176
0	0.992	0.000019716100	0.999980284
0	0.993	0.000023659400	0.999976341
0	0.994	0.000022147000	0.999977853
0	0.995	0.000023594400	0.999976406
0	0.996	0.000020574000	0.999979426
0	0.997	0.000022065200	0.999977935
0	0.998	0.000022501000	0.999977499
0	0.999	0.000027845800	0.999972154
0	1	0.000024935200	0.999975065
0	1.001	0.000024862600	0.999975137
0	1.002	0.000026965800	0.999973034
0	1.003	0.000026688200	0.999973312
0	1.004	0.000029640500	0.99997036
0	1.005	0.000028074500	0.999971926
0	1.006	0.000030127900	0.999969872
0	1.007	0.000032409400	0.999967591
0	1.008	0.000034043200	0.999965957
0	1.009	0.000034107800	0.999965892
0	1.01	0.000032708300	0.999967292
0	1.011	0.000036228600	0.999963771
0	1.012	0.000035698400	0.999964302
0	1.013	0.000040507400	0.999959493
0	1.014	0.000038449300	0.999961551
0	1.015	0.000043219200	0.999956781
0	1.016	0.000043859600	0.99995614
0	1.017	0.000045841700	0.999954158
0	1.018	0.000045714900	0.999954285
0	1.019	0.000048921500	0.999951079
0	1.02	0.000051616700	0.999948383
0	1.021	0.000053679200	0.999946321
0	1.022	0.000055298300	0.999944702
0	1.023	0.000059331900	0.999940668
0	1.024	0.000062847300	0.999937153
0	1.025	0.000064353500	0.999935647
0	1.026	0.000068085500	0.999931915
0	1.027	0.000075488300	0.999924512
0	1.028	0.000079457300	0.999920543
0	1.029	0.000080491400	0.999919509
0	1.03	0.000083916600	0.999916083
0	1.031	0.000090992900	0.999909007
0	1.032	0.000096451600	0.999903548
0	1.033	0.000101449000	0.999898551
0	1.034	0.000108415000	0.999891585
0	1.035	0.000113496000	0.999886504
0	1.036	0.000121846000	0.999878154
0	1.037	0.000132581000	0.999867419
0	1.038	0.000136342000	0.999863658
0	1.039	0.000149114000	0.999850886
0	1.04	0.000161505000	0.999838495
0	1.041	0.000172165000	0.999827835
0	1.042	0.000188043000	0.999811957
0	1.043	0.000200272000	0.999799728
0	1.044	0.000214475000	0.999785525
0	1.045	0.000234938000	0.999765062
0	1.046	0.000254515000	0.999745485
0	1.047	0.000274526000	0.999725474
0	1.048	0.000300701000	0.999699299
0	1.049	0.000328264000	0.999671736
0	1.05	0.000359087000	0.999640913
0	1.051	0.000390547000	0.999609453
0	1.052	0.000429839000	0.999570161
0	1.053	0.000470076000	0.999529924
0	1.054	0.000515660000	0.99948434
0	1.055	0.000567118000	0.999432882
0	1.056	0.000626309000	0.999373691
0	1.057	0.000687072000	0.999312928
0	1.058	0.000758876000	0.999241124
0	1.059	0.000842295000	0.999157705
0	1.06	0.000929839000	0.999070161
0	1.061	0.001035720000	0.99896428
0	1.062	0.001154160000	0.99884584
0	1.063	0.001282040000	0.99871796
0	1.064	0.001429600000	0.9985704
0	1.065	0.001594150000	0.99840585
0	1.066	0.001791680000	0.99820832
0	1.067	0.002009760000	0.99799024
0	1.068	0.002268100000	0.9977319
0	1.069	0.002553770000	0.99744623
0	1.07	0.002869540000	0.99713046
0	1.071	0.003242630000	0.99675737
0	1.072	0.003669090000	0.99633091
0	1.073	0.004145710000	0.99585429
0	1.074	0.004721370000	0.99527863
0	1.075	0.005395580000	0.99460442
0	1.076	0.006088080000	0.99391192
0	1.077	0.006929840000	0.99307016
0	1.078	0.007900530000	0.99209947
0	1.079	0.008959860000	0.99104014
0	1.08	0.010229300000	0.9897707
0	1.081	0.011688600000	0.9883114
0	1.082	0.013259000000	0.986741
0	1.083	0.015043000000	0.984957
0	1.084	0.017065700000	0.9829343
0	1.085	0.019338500000	0.9806615
0	1.086	0.021927400000	0.9780726
0	1.087	0.024906600000	0.9750934
0	1.088	0.028101300000	0.9718987
0	1.089	0.031568900000	0.9684311
0	1.09	0.035534000000	0.964466
0	1.091	0.040026200000	0.9599738
0	1.092	0.044240700000	0.9557593
0	1.093	0.047077300000	0.9529227
0	1.094	0.050779100000	0.9492209
0	1.095	0.054544900000	0.9454551
0	1.096	0.058917800000	0.9410822
0	1.097	0.064149600000	0.9358504
0	1.098	0.069495900000	0.9305041
0	1.099	0.076030800000	0.9239692
0	1.1	0.083274100000	0.9167259
0	1.101	0.090909600000	0.9090904
0	1.102	0.099448900000	0.9005511
0	1.103	0.109042000000	0.890958
0	1.104	0.119636000000	0.880364
0	1.105	0.131822000000	0.868178
0	1.106	0.145549000000	0.854451
0	1.107	0.160557000000	0.839443
0	1.108	0.176809000000	0.823191
0	1.109	0.195529000000	0.804471
0	1.11	0.216822000000	0.783178
0	1.111	0.240544000000	0.759456
0	1.112	0.268134000000	0.731866
0	1.113	0.300431000000	0.699569
0	1.114	0.333361000000	0.666639
0	1.115	0.372127000000	0.627873
0	1.116	0.415558000000	0.584442
0	1.117	0.460239000000	0.539761
0	1.118	0.508351000000	0.491649
0	1.119	0.558175000000	0.441825
0	1.12	0.602218000000	0.397782
0	1.121	0.644082000000	0.355918
0	1.122	0.677631000000	0.322369
0	1.123	0.705022000000	0.294978
0	1.124	0.722644000000	0.277356
0	1.125	0.731525000000	0.268475
0	1.126	0.733838000000	0.266162
0	1.127	0.729285000000	0.270715
0	1.128	0.719982000000	0.280018
0	1.129	0.709073000000	0.290927
0	1.13	0.697306000000	0.302694
0	1.131	0.683391000000	0.316609
0	1.132	0.669441000000	0.330559
0	1.133	0.656466000000	0.343534
0	1.134	0.643479000000	0.356521
0	1.135	0.629037000000	0.370963
0	1.136	0.616022000000	0.383978
0	1.137	0.601058000000	0.398942
0	1.138	0.585656000000	0.414344
0	1.139	0.570713000000	0.429287
0	1.14	0.555027000000	0.444973
0	1.141	0.540146000000	0.459854
0	1.142	0.525071000000	0.474929
0	1.143	0.510897000000	0.489103
0	1.144	0.496334000000	0.503666
0	1.145	0.484928000000	0.515072
0	1.146	0.475208000000	0.524792
0	1.147	0.466858000000	0.533142
0	1.148	0.460999000000	0.539001
0	1.149	0.457505000000	0.542495
0	1.15	0.456646000000	0.543354
0	1.151	0.458775000000	0.541225
0	1.152	0.463346000000	0.536654
0	1.153	0.471461000000	0.528539
0	1.154	0.482255000000	0.517745
0	1.155	0.495410000000	0.50459
0	1.156	0.512165000000	0.487835
0	1.157	0.531771000000	0.468229
0	1.158	0.552424000000	0.447576
0	1.159	0.574264000000	0.425736
0	1.16	0.597427000000	0.402573
0	1.161	0.620166000000	0.379834
0	1.162	0.641551000000	0.358449
0	1.163	0.661897000000	0.338103
0	1.164	0.676293000000	0.323707
0	1.165	0.687298000000	0.312702
0	1.166	0.693142000000	0.306858
0	1.167	0.694964000000	0.305036
0	1.168	0.693525000000	0.306475
0	1.169	0.686676000000	0.313324
0	1.17	0.677562000000	0.322438
0	1.171	0.668594000000	0.331406
0	1.172	0.658257000000	0.341743
0	1.173	0.648740000000	0.35126
0	1.174	0.640541000000	0.359459
0	1.175	0.633549000000	0.366451
0	1.176	0.629359000000	0.370641
0	1.177	0.627714000000	0.372286
0	1.178	0.628378000000	0.371622
0	1.179	0.630931000000	0.369069
0	1.18	0.636528000000	0.363472
0	1.181	0.643960000000	0.35604
0	1.182	0.651980000000	0.34802
0	1.183	0.661651000000	0.338349
0	1.184	0.671577000000	0.328423
0	1.185	0.680536000000	0.319464
0	1.186	0.688578000000	0.311422
0	1.187	0.693958000000	0.306042
0	1.188	0.697595000000	0.302405
0	1.189	0.697517000000	0.302483
0	1.19	0.692847000000	0.307153
0	1.191	0.685129000000	0.314871
0	1.192	0.675238000000	0.324762
0	1.193	0.661763000000	0.338237
0	1.194	0.645928000000	0.354072
0	1.195	0.628685000000	0.371315
0	1.196	0.611695000000	0.388305
0	1.197	0.594991000000	0.405009
0	1.198	0.577217000000	0.422783
0	1.199	0.561242000000	0.438758
0	1.2	0.545779000000	0.454221
