0	0.2	0.0000000001000	0.9999999999000
0	0.201	0.0000014540700	0.9999985459300
0	0.202	0.0000000001000	0.9999999999000
0	0.203	0.0000000001000	0.9999999999000
0	0.204	0.0000006069800	0.9999993930200
0	0.205	0.0000000001000	0.9999999999000
0	0.206	0.0000002698590	0.9999997301410
0	0.207	0.0000000001000	0.9999999999000
0	0.208	0.0000002280470	0.9999997719530
0	0.209	0.0000007538570	0.9999992461430
0	0.21	0.0000000001000	0.9999999999000
0	0.211	0.0000000001000	0.9999999999000
0	0.212	0.0000003100590	0.9999996899410
0	0.213	0.0000000001000	0.9999999999000
0	0.214	0.0000002548440	0.9999997451560
0	0.215	0.0000000001000	0.9999999999000
0	0.216	0.0000004621160	0.9999995378840
0	0.217	0.0000000001000	0.9999999999000
0	0.218	0.0000001733550	0.9999998266450
0	0.219	0.0000000821432	0.9999999178568
0	0.22	0.0000000001000	0.9999999999000
0	0.221	0.0000002874170	0.9999997125830
0	0.222	0.0000000001000	0.9999999999000
0	0.223	0.0000001350270	0.9999998649730
0	0.224	0.0000002458990	0.9999997541010
0	0.225	0.0000001458400	0.9999998541600
0	0.226	0.0000001376120	0.9999998623880
0	0.227	0.0000000418275	0.9999999581725
0	0.228	0.0000000685637	0.9999999314363
0	0.229	0.0000000477169	0.9999999522831
0	0.23	0.0000000541427	0.9999999458573
0	0.231	0.0000000001000	0.9999999999000
0	0.232	0.0000000289671	0.9999999710329
0	0.233	0.0000000001000	0.9999999999000
0	0.234	0.0000002347060	0.9999997652940
0	0.235	0.0000000001000	0.9999999999000
0	0.236	0.0000000001000	0.9999999999000
0	0.237	0.0000000001000	0.9999999999000
0	0.238	0.0000001809920	0.9999998190080
0	0.239	0.0000001166600	0.9999998833400
0	0.24	0.0000002061670	0.9999997938330
0	0.241	0.0000000461339	0.9999999538661
0	0.242	0.0000002291260	0.9999997708740
0	0.243	0.0000000001000	0.9999999999000
0	0.244	0.0000000365031	0.9999999634969
0	0.245	0.0000000042863	0.9999999957138
0	0.246	0.0000001851120	0.9999998148880
0	0.247	0.0000002005890	0.9999997994110
0	0.248	0.0000000001000	0.9999999999000
0	0.249	0.0000001937430	0.9999998062570
0	0.25	0.0000000001000	0.9999999999000
0	0.251	0.0000000672201	0.9999999327799
0	0.252	0.0000000001000	0.9999999999000
0	0.253	0.0000001492590	0.9999998507410
0	0.254	0.0000000001000	0.9999999999000
0	0.255	0.0000000001000	0.9999999999000
0	0.256	0.0000002706990	0.9999997293010
0	0.257	0.0000000001000	0.9999999999000
0	0.258	0.0000000001000	0.9999999999000
0	0.259	0.0000001128390	0.9999998871610
0	0.26	0.0000000711920	0.9999999288080
0	0.261	0.0000000001000	0.9999999999000
0	0.262	0.0000001594670	0.9999998405330
0	0.263	0.0000000826376	0.9999999173624
0	0.264	0.0000000001000	0.9999999999000
0	0.265	0.0000001247240	0.9999998752760
0	0.266	0.0000000011448	0.9999999988552
0	0.267	0.0000000001000	0.9999999999000
0	0.268	0.0000000001000	0.9999999999000
0	0.269	0.0000001629970	0.9999998370030
0	0.27	0.0000002903650	0.9999997096350
0	0.271	0.0000000001000	0.9999999999000
0	0.272	0.0000000061219	0.9999999938782
0	0.273	0.0000002341460	0.9999997658540
0	0.274	0.0000000001000	0.9999999999000
0	0.275	0.0000000163077	0.9999999836923
0	0.276	0.0000000001000	0.9999999999000
0	0.277	0.0000000003650	0.9999999996350
0	0.278	0.0000001132400	0.9999998867600
0	0.279	0.0000000001000	0.9999999999000
0	0.28	0.0000000909625	0.9999999090375
0	0.281	0.0000000158384	0.9999999841616
0	0.282	0.0000002242280	0.9999997757720
0	0.283	0.0000000009482	0.9999999990518
0	0.284	0.0000000939744	0.9999999060256
0	0.285	0.0000000065722	0.9999999934278
0	0.286	0.0000002293740	0.9999997706260
0	0.287	0.0000000001000	0.9999999999000
0	0.288	0.0000000001000	0.9999999999000
0	0.289	0.0000003167300	0.9999996832700
0	0.29	0.0000001026760	0.9999998973240
0	0.291	0.0000000001000	0.9999999999000
0	0.292	0.0000000001000	0.9999999999000
0	0.293	0.0000001528460	0.9999998471540
0	0.294	0.0000000757489	0.9999999242511
0	0.295	0.0000000001000	0.9999999999000
0	0.296	0.0000000001000	0.9999999999000
0	0.297	0.0000001023710	0.9999998976290
0	0.298	0.0000000001000	0.9999999999000
0	0.299	0.0000001755600	0.9999998244400
0	0.3	0.0000000001000	0.9999999999000
0	0.301	0.0000000001000	0.9999999999000
0	0.302	0.0000000653172	0.9999999346828
0	0.303	0.0000001311350	0.9999998688650
0	0.304	0.0000000091366	0.9999999908634
0	0.305	0.0000001499330	0.9999998500670
0	0.306	0.0000001454560	0.9999998545440
0	0.307	0.0000000001000	0.9999999999000
0	0.308	0.0000000001000	0.9999999999000
0	0.309	0.0000000654668	0.9999999345332
0	0.31	0.0000000001000	0.9999999999000
0	0.311	0.0000000084309	0.9999999915691
0	0.312	0.0000002912150	0.9999997087850
0	0.313	0.0000001659390	0.9999998340610
0	0.314	0.0000000001000	0.9999999999000
0	0.315	0.0000000016125	0.9999999983875
0	0.316	0.0000001950940	0.9999998049060
0	0.317	0.0000000205878	0.9999999794122
0	0.318	0.0000000001000	0.9999999999000
0	0.319	0.0000000001000	0.9999999999000
0	0.32	0.0000000001000	0.9999999999000
0	0.321	0.0000000001000	0.9999999999000
0	0.322	0.0000001617140	0.9999998382860
0	0.323	0.0000000001000	0.9999999999000
0	0.324	0.0000001751890	0.9999998248110
0	0.325	0.0000002182300	0.9999997817700
0	0.326	0.0000002770640	0.9999997229360
0	0.327	0.0000000700756	0.9999999299244
0	0.328	0.0000003561500	0.9999996438500
0	0.329	0.0000000001000	0.9999999999000
0	0.33	0.0000000493141	0.9999999506859
0	0.331	0.0000000001000	0.9999999999000
0	0.332	0.0000002514880	0.9999997485120
0	0.333	0.0000000001000	0.9999999999000
0	0.334	0.0000000001000	0.9999999999000
0	0.335	0.0000000001000	0.9999999999000
0	0.336	0.0000003689060	0.9999996310940
0	0.337	0.0000006947070	0.9999993052930
0	0.338	0.0000003043810	0.9999996956190
0	0.339	0.0000001067210	0.9999998932790
0	0.34	0.0000000001000	0.9999999999000
0	0.341	0.0000000001000	0.9999999999000
0	0.342	0.0000001241920	0.9999998758080
0	0.343	0.0000003781410	0.9999996218590
0	0.344	0.0000000001000	0.9999999999000
0	0.345	0.0000001951870	0.9999998048130
0	0.346	0.0000000594907	0.9999999405093
0	0.347	0.0000000001000	0.9999999999000
0	0.348	0.0000000001000	0.9999999999000
0	0.349	0.0000007551990	0.9999992448010
0	0.35	0.0000000568522	0.9999999431478
0	0.351	0.0000002048140	0.9999997951860
0	0.352	0.0000002214980	0.9999997785020
0	0.353	0.0000003364140	0.9999996635860
0	0.354	0.0000002116740	0.9999997883260
0	0.355	0.0000001655420	0.9999998344580
0	0.356	0.0000000225258	0.9999999774742
0	0.357	0.0000000001000	0.9999999999000
0	0.358	0.0000000001000	0.9999999999000
0	0.359	0.0000002269000	0.9999997731000
0	0.36	0.0000001584790	0.9999998415210
0	0.361	0.0000001091970	0.9999998908030
0	0.362	0.0000002046220	0.9999997953780
0	0.363	0.0000000001000	0.9999999999000
0	0.364	0.0000000242001	0.9999999757999
0	0.365	0.0000001712700	0.9999998287300
0	0.366	0.0000001868290	0.9999998131710
0	0.367	0.0000000176636	0.9999999823364
0	0.368	0.0000000001000	0.9999999999000
0	0.369	0.0000000001000	0.9999999999000
0	0.37	0.0000000790730	0.9999999209270
0	0.371	0.0000001533950	0.9999998466050
0	0.372	0.0000001997900	0.9999998002100
0	0.373	0.0000002385160	0.9999997614840
0	0.374	0.0000000739885	0.9999999260115
0	0.375	0.0000000628094	0.9999999371906
0	0.376	0.0000000001000	0.9999999999000
0	0.377	0.0000000001000	0.9999999999000
0	0.378	0.0000002888140	0.9999997111860
0	0.379	0.0000003319630	0.9999996680370
0	0.38	0.0000000001000	0.9999999999000
0	0.381	0.0000001053600	0.9999998946400
0	0.382	0.0000003503190	0.9999996496810
0	0.383	0.0000000281718	0.9999999718282
0	0.384	0.0000000847915	0.9999999152085
0	0.385	0.0000000868918	0.9999999131082
0	0.386	0.0000001095650	0.9999998904350
0	0.387	0.0000000011589	0.9999999988412
0	0.388	0.0000001121140	0.9999998878860
0	0.389	0.0000000046547	0.9999999953453
0	0.39	0.0000001070320	0.9999998929680
0	0.391	0.0000000507538	0.9999999492462
0	0.392	0.0000000332261	0.9999999667739
0	0.393	0.0000001816760	0.9999998183240
0	0.394	0.0000000001000	0.9999999999000
0	0.395	0.0000001920110	0.9999998079890
0	0.396	0.0000000577660	0.9999999422340
0	0.397	0.0000001486170	0.9999998513830
0	0.398	0.0000000001000	0.9999999999000
0	0.399	0.0000000198491	0.9999999801509
0	0.4	0.0000000001000	0.9999999999000
0	0.401	0.0000001425780	0.9999998574220
0	0.402	0.0000000001000	0.9999999999000
0	0.403	0.0000001258690	0.9999998741310
0	0.404	0.0000000001000	0.9999999999000
0	0.405	0.0000000890770	0.9999999109230
0	0.406	0.0000001260090	0.9999998739910
0	0.407	0.0000000730353	0.9999999269647
0	0.408	0.0000001356700	0.9999998643300
0	0.409	0.0000001665940	0.9999998334060
0	0.41	0.0000004431560	0.9999995568440
0	0.411	0.0000006183580	0.9999993816420
0	0.412	0.0000009224350	0.9999990775650
0	0.413	0.0000010428500	0.9999989571500
0	0.414	0.0000012080300	0.9999987919700
0	0.415	0.0000020632300	0.9999979367700
0	0.416	0.0000034627500	0.9999965372500
0	0.417	0.0000033968000	0.9999966032000
0	0.418	0.0000020539900	0.9999979460100
0	0.419	0.0000008874560	0.9999991125440
0	0.42	0.0000005584620	0.9999994415380
0	0.421	0.0000005113600	0.9999994886400
0	0.422	0.0000008152770	0.9999991847230
0	0.423	0.0000014934300	0.9999985065700
0	0.424	0.0000038088900	0.9999961911100
0	0.425	0.0000076777900	0.9999923222100
0	0.426	0.0000092715800	0.9999907284200
0	0.427	0.0000061826100	0.9999938173900
0	0.428	0.0000023605000	0.9999976395000
0	0.429	0.0000007559510	0.9999992440490
0	0.43	0.0000005348120	0.9999994651880
0	0.431	0.0000003936450	0.9999996063550
0	0.432	0.0000004706060	0.9999995293940
0	0.433	0.0000007958850	0.9999992041150
0	0.434	0.0000012155200	0.9999987844800
0	0.435	0.0000019215200	0.9999980784800
0	0.436	0.0000031941200	0.9999968058800
0	0.437	0.0000048289800	0.9999951710200
0	0.438	0.0000054365900	0.9999945634100
0	0.439	0.0000030075600	0.9999969924400
0	0.44	0.0000004877700	0.9999995122300
0	0.441	0.0000002208720	0.9999997791280
0	0.442	0.0000001462740	0.9999998537260
0	0.443	0.0000003071890	0.9999996928110
0	0.444	0.0000001322670	0.9999998677330
0	0.445	0.0000000422216	0.9999999577784
0	0.446	0.0000000001000	0.9999999999000
0	0.447	0.0000000138431	0.9999999861569
0	0.448	0.0000000001000	0.9999999999000
0	0.449	0.0000001364710	0.9999998635290
0	0.45	0.0007501540000	0.9992498460000
0	0.4503	0.0008909310000	0.9991090690000
0	0.4506	0.0008224230000	0.9991775770000
0	0.4509	0.0008943620000	0.9991056380000
0	0.4512	0.0008054690000	0.9991945310000
0	0.4515	0.0009624520000	0.9990375480000
0	0.4518	0.0002868460000	0.9997131540000
0	0.4521	0.0003326080000	0.9996673920000
0	0.4524	0.0007314310000	0.9992685690000
0	0.4527	0.0010309500000	0.9989690500000
0	0.453	0.0015402800000	0.9984597200000
0	0.4533	0.0008108430000	0.9991891570000
0	0.4536	0.0005077770000	0.9994922230000
0	0.4539	0.0004060460000	0.9995939540000
0	0.4542	0.0002833450000	0.9997166550000
0	0.4545	0.0003119690000	0.9996880310000
0	0.4548	0.0006659230000	0.9993340770000
0	0.4551	0.0006914380000	0.9993085620000
0	0.4554	0.0010365500000	0.9989634500000
0	0.4557	0.0006348230000	0.9993651770000
0	0.456	0.0002586850000	0.9997413150000
0	0.4563	0.0009102690000	0.9990897310000
0	0.4566	0.0007776460000	0.9992223540000
0	0.4569	0.0011747500000	0.9988252500000
0	0.4572	0.0007218460000	0.9992781540000
0	0.4575	0.0007341580000	0.9992658420000
0	0.4578	0.0007568000000	0.9992432000000
0	0.4581	0.0006968790000	0.9993031210000
0	0.4584	0.0009561080000	0.9990438920000
0	0.4587	0.0006678000000	0.9993322000000
0	0.459	0.0005683510000	0.9994316490000
0	0.4593	0.0008913620000	0.9991086380000
0	0.4596	0.0009775080000	0.9990224920000
0	0.4599	0.0011913300000	0.9988086700000
0	0.4602	0.0004795130000	0.9995204870000
0	0.4605	0.0001435620000	0.9998564380000
0	0.4608	0.0010910900000	0.9989089100000
0	0.4611	0.0005169070000	0.9994830930000
0	0.4614	0.0004225620000	0.9995774380000
0	0.4617	0.0001966150000	0.9998033850000
0	0.462	0.0005652080000	0.9994347920000
0	0.4623	0.0006774540000	0.9993225460000
0	0.4626	0.0006236920000	0.9993763080000
0	0.4629	0.0009200350000	0.9990799650000
0	0.4632	0.0005870690000	0.9994129310000
0	0.4635	0.0005450920000	0.9994549080000
0	0.4638	0.0005215850000	0.9994784150000
0	0.4641	0.0006412960000	0.9993587040000
0	0.4644	0.0009499400000	0.9990500600000
0	0.4647	0.0007010860000	0.9992989140000
0	0.465	0.0007317450000	0.9992682550000
0	0.4653	0.0001198380000	0.9998801620000
0	0.4656	0.0002626940000	0.9997373060000
0	0.4659	0.0007426540000	0.9992573460000
0	0.4662	0.0005481620000	0.9994518380000
0	0.4665	0.0005514920000	0.9994485080000
0	0.4668	0.0004842380000	0.9995157620000
0	0.4671	0.0002717310000	0.9997282690000
0	0.4674	0.0002143540000	0.9997856460000
0	0.4677	0.0002266470000	0.9997733530000
0	0.468	0.0006659460000	0.9993340540000
0	0.4683	0.0007586230000	0.9992413770000
0	0.4686	0.0005697950000	0.9994302050000
0	0.4689	0.0006688750000	0.9993311250000
0	0.4692	0.0004415000000	0.9995585000000
0	0.4695	0.0004455460000	0.9995544540000
0	0.4698	0.0001741920000	0.9998258080000
0	0.4701	0.0003009460000	0.9996990540000
0	0.4704	0.0008720620000	0.9991279380000
0	0.4707	0.0006271720000	0.9993728280000
0	0.471	0.0005820410000	0.9994179590000
0	0.4713	0.0008030230000	0.9991969770000
0	0.4716	0.0004719820000	0.9995280180000
0	0.4719	0.0004274340000	0.9995725660000
0	0.4722	0.0004119570000	0.9995880430000
0	0.4725	0.0005544690000	0.9994455310000
0	0.4728	0.0006010550000	0.9993989450000
0	0.4731	0.0005635690000	0.9994364310000
0	0.4734	0.0007073920000	0.9992926080000
0	0.4737	0.0004116850000	0.9995883150000
0	0.474	0.0003936920000	0.9996063080000
0	0.4743	0.0006265280000	0.9993734720000
0	0.4746	0.0005171380000	0.9994828620000
0	0.4749	0.0006333310000	0.9993666690000
0	0.4752	0.0007051000000	0.9992949000000
0	0.4755	0.0008348150000	0.9991651850000
0	0.4758	0.0007686380000	0.9992313620000
0	0.4761	0.0006867480000	0.9993132520000
0	0.4764	0.0007643770000	0.9992356230000
0	0.4767	0.0006189230000	0.9993810770000
0	0.477	0.0007242310000	0.9992757690000
0	0.4773	0.0005732000000	0.9994268000000
0	0.4776	0.0005748310000	0.9994251690000
0	0.4779	0.0007932000000	0.9992068000000
0	0.4782	0.0005650230000	0.9994349770000
0	0.4785	0.0007004770000	0.9992995230000
0	0.4788	0.0010352200000	0.9989647800000
0	0.4791	0.0006906850000	0.9993093150000
0	0.4794	0.0005046620000	0.9994953380000
0	0.4797	0.0005632230000	0.9994367770000
0	0.48	0.0008010770000	0.9991989230000
0	0.4803	0.0007856380000	0.9992143620000
0	0.4806	0.0008113920000	0.9991886080000
0	0.4809	0.0009313850000	0.9990686150000
0	0.4812	0.0009182610000	0.9990817390000
0	0.4815	0.0010040900000	0.9989959100000
0	0.4818	0.0007473150000	0.9992526850000
0	0.4821	0.0005313160000	0.9994686840000
0	0.4824	0.0005573910000	0.9994426090000
0	0.4827	0.0007024760000	0.9992975240000
0	0.483	0.0009681620000	0.9990318380000
0	0.4833	0.0009232050000	0.9990767950000
0	0.4836	0.0007523460000	0.9992476540000
0	0.4839	0.0008693850000	0.9991306150000
0	0.4842	0.0007268510000	0.9992731490000
0	0.4845	0.0007031080000	0.9992968920000
0	0.4848	0.0006620770000	0.9993379230000
0	0.4851	0.0008236380000	0.9991763620000
0	0.4854	0.0011488600000	0.9988511400000
0	0.4857	0.0009894380000	0.9990105620000
0	0.486	0.0009056640000	0.9990943360000
0	0.4863	0.0006573690000	0.9993426310000
0	0.4866	0.0005258760000	0.9994741240000
0	0.4869	0.0006661000000	0.9993339000000
0	0.4872	0.0004663150000	0.9995336850000
0	0.4875	0.0004366690000	0.9995633310000
0	0.4878	0.0005172150000	0.9994827850000
0	0.4881	0.0004831850000	0.9995168150000
0	0.4884	0.0006081620000	0.9993918380000
0	0.4887	0.0007069690000	0.9992930310000
0	0.489	0.0009150540000	0.9990849460000
0	0.4893	0.0005268080000	0.9994731920000
0	0.4896	0.0006531520000	0.9993468480000
0	0.4899	0.0009844920000	0.9990155080000
0	0.4902	0.0009196120000	0.9990803880000
0	0.4905	0.0009513460000	0.9990486540000
0	0.4908	0.0005953020000	0.9994046980000
0	0.4911	0.0004130470000	0.9995869530000
0	0.4914	0.0006491380000	0.9993508620000
0	0.4917	0.0004704230000	0.9995295770000
0	0.492	0.0004837240000	0.9995162760000
0	0.4923	0.0006725850000	0.9993274150000
0	0.4926	0.0003861720000	0.9996138280000
0	0.4929	0.0003660620000	0.9996339380000
0	0.4932	0.0005643000000	0.9994357000000
0	0.4935	0.0010637100000	0.9989362900000
0	0.4938	0.0004313620000	0.9995686380000
0	0.4941	0.0005135380000	0.9994864620000
0	0.4944	0.0006348410000	0.9993651590000
0	0.4947	0.0005554460000	0.9994445540000
0	0.495	0.0005056130000	0.9994943870000
0	0.4953	0.0008901690000	0.9991098310000
0	0.4956	0.0005431390000	0.9994568610000
0	0.4959	0.0004235150000	0.9995764850000
0	0.4962	0.0003427230000	0.9996572770000
0	0.4965	0.0003727230000	0.9996272770000
0	0.4968	0.0003471940000	0.9996528060000
0	0.4971	0.0003388290000	0.9996611710000
0	0.4974	0.0005239540000	0.9994760460000
0	0.4977	0.0004354230000	0.9995645770000
0	0.498	0.0005225070000	0.9994774930000
0	0.4983	0.0004421940000	0.9995578060000
0	0.4986	0.0003514410000	0.9996485590000
0	0.4989	0.0003275690000	0.9996724310000
0	0.4992	0.0003435160000	0.9996564840000
0	0.4995	0.0004258920000	0.9995741080000
0	0.4998	0.0007993680000	0.9992006320000
0	0.5001	0.0007075620000	0.9992924380000
0	0.5004	0.0006853090000	0.9993146910000
0	0.5007	0.0008525310000	0.9991474690000
0	0.501	0.0011056700000	0.9988943300000
0	0.5013	0.0007056920000	0.9992943080000
0	0.5016	0.0004933830000	0.9995066170000
0	0.5019	0.0003372430000	0.9996627570000
0	0.5022	0.0004550150000	0.9995449850000
0	0.5025	0.0008327310000	0.9991672690000
0	0.5028	0.0005771310000	0.9994228690000
0	0.5031	0.0004714120000	0.9995285880000
0	0.5034	0.0005327540000	0.9994672460000
0	0.5037	0.0005783900000	0.9994216100000
0	0.504	0.0007621370000	0.9992378630000
0	0.5043	0.0005299780000	0.9994700220000
0	0.5046	0.0005979080000	0.9994020920000
0	0.5049	0.0007590080000	0.9992409920000
0	0.5052	0.0005673770000	0.9994326230000
0	0.5055	0.0004869850000	0.9995130150000
0	0.5058	0.0004234150000	0.9995765850000
0	0.5061	0.0005161770000	0.9994838230000
0	0.5064	0.0006742540000	0.9993257460000
0	0.5067	0.0007269850000	0.9992730150000
0	0.507	0.0008220620000	0.9991779380000
0	0.5073	0.0007674380000	0.9992325620000
0	0.5076	0.0007313620000	0.9992686380000
0	0.5079	0.0008775620000	0.9991224380000
0	0.5082	0.0006103230000	0.9993896770000
0	0.5085	0.0004669040000	0.9995330960000
0	0.5088	0.0004856920000	0.9995143080000
0	0.5091	0.0004318770000	0.9995681230000
0	0.5094	0.0004878850000	0.9995121150000
0	0.5097	0.0005865880000	0.9994134120000
0	0.51	0.0007872540000	0.9992127460000
0	0.5103	0.0008800460000	0.9991199540000
0	0.5106	0.0006925930000	0.9993074070000
0	0.5109	0.0005797340000	0.9994202660000
0	0.5112	0.0003549120000	0.9996450880000
0	0.5115	0.0003767310000	0.9996232690000
0	0.5118	0.0006940380000	0.9993059620000
0	0.5121	0.0006137920000	0.9993862080000
0	0.5124	0.0006195310000	0.9993804690000
0	0.5127	0.0004927550000	0.9995072450000
0	0.513	0.0004837000000	0.9995163000000
0	0.5133	0.0006419920000	0.9993580080000
0	0.5136	0.0005806640000	0.9994193360000
0	0.5139	0.0006516090000	0.9993483910000
0	0.5142	0.0006086770000	0.9993913230000
0	0.5145	0.0007349310000	0.9992650690000
0	0.5148	0.0005075950000	0.9994924050000
0	0.5151	0.0004482850000	0.9995517150000
0	0.5154	0.0005014850000	0.9994985150000
0	0.5157	0.0003142410000	0.9996857590000
0	0.516	0.0003079460000	0.9996920540000
0	0.5163	0.0007567010000	0.9992432990000
0	0.5166	0.0007638850000	0.9992361150000
0	0.5169	0.0007740810000	0.9992259190000
0	0.5172	0.0006322000000	0.9993678000000
0	0.5175	0.0006264920000	0.9993735080000
0	0.5178	0.0007285150000	0.9992714850000
0	0.5181	0.0006487920000	0.9993512080000
0	0.5184	0.0006031230000	0.9993968770000
0	0.5187	0.0005434460000	0.9994565540000
0	0.519	0.0005174310000	0.9994825690000
0	0.5193	0.0003534690000	0.9996465310000
0	0.5196	0.0004146380000	0.9995853620000
0	0.5199	0.0006837620000	0.9993162380000
0	0.5202	0.0005790280000	0.9994209720000
0	0.5205	0.0005570840000	0.9994429160000
0	0.5208	0.0006388460000	0.9993611540000
0	0.5211	0.0005540620000	0.9994459380000
0	0.5214	0.0005547540000	0.9994452460000
0	0.5217	0.0004956100000	0.9995043900000
0	0.522	0.0005975460000	0.9994024540000
0	0.5223	0.0003029080000	0.9996970920000
0	0.5226	0.0003989490000	0.9996010510000
0	0.5229	0.0007239570000	0.9992760430000
0	0.5232	0.0006423910000	0.9993576090000
0	0.5235	0.0006811460000	0.9993188540000
0	0.5238	0.0008296850000	0.9991703150000
0	0.5241	0.0006671470000	0.9993328530000
0	0.5244	0.0006932080000	0.9993067920000
0	0.5247	0.0005110690000	0.9994889310000
0	0.525	0.0005370770000	0.9994629230000
0	0.5253	0.0005982620000	0.9994017380000
0	0.5256	0.0005776160000	0.9994223840000
0	0.5259	0.0006362000000	0.9993638000000
0	0.5262	0.0006925460000	0.9993074540000
0	0.5265	0.0008365040000	0.9991634960000
0	0.5268	0.0005919550000	0.9994080450000
0	0.5271	0.0006838540000	0.9993161460000
0	0.5274	0.0007928380000	0.9992071620000
0	0.5277	0.0007513690000	0.9992486310000
0	0.528	0.0007478850000	0.9992521150000
0	0.5283	0.0005846620000	0.9994153380000
0	0.5286	0.0006970850000	0.9993029150000
0	0.5289	0.0008845230000	0.9991154770000
0	0.5292	0.0006883620000	0.9993116380000
0	0.5295	0.0005504850000	0.9994495150000
0	0.5298	0.0007394380000	0.9992605620000
0	0.5301	0.0006263380000	0.9993736620000
0	0.5304	0.0005794380000	0.9994205620000
0	0.5307	0.0006745910000	0.9993254090000
0	0.531	0.0008404670000	0.9991595330000
0	0.5313	0.0007349460000	0.9992650540000
0	0.5316	0.0008728310000	0.9991271690000
0	0.5319	0.0010758500000	0.9989241500000
0	0.5322	0.0009293310000	0.9990706690000
0	0.5325	0.0008431310000	0.9991568690000
0	0.5328	0.0011862500000	0.9988137500000
0	0.5331	0.0010922200000	0.9989077800000
0	0.5334	0.0009986230000	0.9990013770000
0	0.5337	0.0011141500000	0.9988858500000
0	0.534	0.0012568300000	0.9987431700000
0	0.5343	0.0012597200000	0.9987402800000
0	0.5346	0.0015405500000	0.9984594500000
0	0.5349	0.0018196300000	0.9981803700000
0	0.5352	0.0019341200000	0.9980658800000
0	0.5355	0.0020482100000	0.9979517900000
0	0.5358	0.0019470800000	0.9980529200000
0	0.5361	0.0020455000000	0.9979545000000
0	0.5364	0.0021434500000	0.9978565500000
0	0.5367	0.0021749200000	0.9978250800000
0	0.537	0.0022060800000	0.9977939200000
0	0.5373	0.0025338500000	0.9974661500000
0	0.5376	0.0026353800000	0.9973646200000
0	0.5379	0.0027363800000	0.9972636200000
0	0.5382	0.0030446200000	0.9969553800000
0	0.5385	0.0033529200000	0.9966470800000
0	0.5388	0.0035650800000	0.9964349200000
0	0.5391	0.0039108500000	0.9960891500000
0	0.5394	0.0042562300000	0.9957437700000
0	0.5397	0.0044209200000	0.9955790800000
0	0.54	0.0045854000000	0.9954146000000
0	0.5403	0.0055197700000	0.9944802300000
0	0.5406	0.0059890800000	0.9940109200000
0	0.5409	0.0064590000000	0.9935410000000
0	0.5412	0.0068792300000	0.9931207700000
0	0.5415	0.0072996200000	0.9927003800000
0	0.5418	0.0076813100000	0.9923186900000
0	0.5421	0.0088457700000	0.9911542300000
0	0.5424	0.0100095000000	0.9899905000000
0	0.5427	0.0110255000000	0.9889745000000
0	0.543	0.0120366000000	0.9879634000000
0	0.5433	0.0137059000000	0.9862941000000
0	0.5436	0.0155123000000	0.9844877000000
0	0.5439	0.0173198000000	0.9826802000000
0	0.5442	0.0194797000000	0.9805203000000
0	0.5445	0.0216335000000	0.9783665000000
0	0.5448	0.0239146000000	0.9760854000000
0	0.5451	0.0268215000000	0.9731785000000
0	0.5454	0.0297162000000	0.9702838000000
0	0.5457	0.0337738000000	0.9662262000000
0	0.546	0.0378131000000	0.9621869000000
0	0.5463	0.0437254000000	0.9562746000000
0	0.5466	0.0510346000000	0.9489654000000
0	0.5469	0.0582931000000	0.9417069000000
0	0.5472	0.0697623000000	0.9302377000000
0	0.5475	0.0811654000000	0.9188346000000
0	0.5478	0.0950638000000	0.9049362000000
0	0.5481	0.1108650000000	0.8891350000000
0	0.5484	0.1264980000000	0.8735020000000
0	0.5487	0.1434450000000	0.8565550000000
0	0.549	0.1602180000000	0.8397820000000
0	0.5493	0.1767430000000	0.8232570000000
0	0.5496	0.1947060000000	0.8052940000000
0	0.5499	0.2125950000000	0.7874050000000
0	0.5502	0.2353540000000	0.7646460000000
0	0.5505	0.2579380000000	0.7420620000000
0	0.5508	0.2897310000000	0.7102690000000
0	0.5511	0.3213380000000	0.6786620000000
0	0.5514	0.3612230000000	0.6387770000000
0	0.5517	0.4091380000000	0.5908620000000
0	0.552	0.4568380000000	0.5431620000000
0	0.5523	0.5081620000000	0.4918380000000
0	0.5526	0.5592690000000	0.4407310000000
0	0.5529	0.6090380000000	0.3909620000000
0	0.5532	0.6498690000000	0.3501310000000
0	0.5535	0.6904460000000	0.3095540000000
0	0.5538	0.7216850000000	0.2783150000000
0	0.5541	0.7528230000000	0.2471770000000
0	0.5544	0.7774000000000	0.2226000000000
0	0.5547	0.8019380000000	0.1980620000000
0	0.555	0.8264620000000	0.1735380000000
0	0.5553	0.8476080000000	0.1523920000000
0	0.5556	0.8687150000000	0.1312850000000
0	0.5559	0.8859080000000	0.1140920000000
0	0.5562	0.8978000000000	0.1022000000000
0	0.5565	0.9097150000000	0.0902850000000
0	0.5568	0.9142000000000	0.0858000000000
0	0.5571	0.9186770000000	0.0813230000000
0	0.5574	0.9238080000000	0.0761920000000
0	0.5577	0.9249460000000	0.0750540000000
0	0.558	0.9260920000000	0.0739080000000
0	0.5583	0.9273690000000	0.0726310000000
0	0.5586	0.9286620000000	0.0713380000000
0	0.5589	0.9288150000000	0.0711850000000
0	0.5592	0.9313690000000	0.0686310000000
0	0.5595	0.9339080000000	0.0660920000000
0	0.5598	0.9347230000000	0.0652770000000
0	0.5601	0.9355150000000	0.0644850000000
0	0.5604	0.9361770000000	0.0638230000000
0	0.5607	0.9378620000000	0.0621380000000
0	0.561	0.9395310000000	0.0604690000000
0	0.5613	0.9393230000000	0.0606770000000
0	0.5616	0.9391080000000	0.0608920000000
0	0.5619	0.9398540000000	0.0601460000000
0	0.5622	0.9382770000000	0.0617230000000
0	0.5625	0.9367080000000	0.0632920000000
0	0.5628	0.9376770000000	0.0623230000000
0	0.5631	0.9386460000000	0.0613540000000
0	0.5634	0.9386920000000	0.0613080000000
0	0.5637	0.9398460000000	0.0601540000000
0	0.564	0.9410230000000	0.0589770000000
0	0.5643	0.9425380000000	0.0574620000000
0	0.5646	0.9441080000000	0.0558920000000
0	0.5649	0.9451380000000	0.0548620000000
0	0.5652	0.9468150000000	0.0531850000000
0	0.5655	0.9485000000000	0.0515000000000
0	0.5658	0.9484920000000	0.0515080000000
0	0.5661	0.9484850000000	0.0515150000000
0	0.5664	0.9492620000000	0.0507380000000
0	0.5667	0.9488690000000	0.0511310000000
0	0.567	0.9484620000000	0.0515380000000
0	0.5673	0.9476460000000	0.0523540000000
0	0.5676	0.9468230000000	0.0531770000000
0	0.5679	0.9446000000000	0.0554000000000
0	0.5682	0.9446690000000	0.0553310000000
0	0.5685	0.9447380000000	0.0552620000000
0	0.5688	0.9432540000000	0.0567460000000
0	0.5691	0.9418000000000	0.0582000000000
0	0.5694	0.9412920000000	0.0587080000000
0	0.5697	0.9404770000000	0.0595230000000
0	0.57	0.9396850000000	0.0603150000000
0	0.5703	0.9391310000000	0.0608690000000
0	0.5706	0.9385540000000	0.0614460000000
0	0.5709	0.9351230000000	0.0648770000000
0	0.5712	0.9351310000000	0.0648690000000
0	0.5715	0.9351540000000	0.0648460000000
0	0.5718	0.9365850000000	0.0634150000000
0	0.5721	0.9380230000000	0.0619770000000
0	0.5724	0.9376460000000	0.0623540000000
0	0.5727	0.9406380000000	0.0593620000000
0	0.573	0.9436000000000	0.0564000000000
0	0.5733	0.9452000000000	0.0548000000000
0	0.5736	0.9467690000000	0.0532310000000
0	0.5739	0.9496920000000	0.0503080000000
0	0.5742	0.9507230000000	0.0492770000000
0	0.5745	0.9517460000000	0.0482540000000
0	0.5748	0.9534230000000	0.0465770000000
0	0.5751	0.9551310000000	0.0448690000000
0	0.5754	0.9541000000000	0.0459000000000
0	0.5757	0.9520690000000	0.0479310000000
0	0.576	0.9500540000000	0.0499460000000
0	0.5763	0.9494540000000	0.0505460000000
0	0.5766	0.9488540000000	0.0511460000000
0	0.5769	0.9460000000000	0.0540000000000
0	0.5772	0.9470150000000	0.0529850000000
0	0.5775	0.9480080000000	0.0519920000000
0	0.5778	0.9475540000000	0.0524460000000
0	0.5781	0.9470920000000	0.0529080000000
0	0.5784	0.9494770000000	0.0505230000000
0	0.5787	0.9507690000000	0.0492310000000
0	0.579	0.9520690000000	0.0479310000000
0	0.5793	0.9531850000000	0.0468150000000
0	0.5796	0.9543230000000	0.0456770000000
0	0.5799	0.9552000000000	0.0448000000000
0	0.5802	0.9544000000000	0.0456000000000
0	0.5805	0.9536000000000	0.0464000000000
0	0.5808	0.9524620000000	0.0475380000000
0	0.5811	0.9513540000000	0.0486460000000
0	0.5814	0.9501150000000	0.0498850000000
0	0.5817	0.9493770000000	0.0506230000000
0	0.582	0.9486380000000	0.0513620000000
0	0.5823	0.9471380000000	0.0528620000000
0	0.5826	0.9456850000000	0.0543150000000
0	0.5829	0.9465920000000	0.0534080000000
0	0.5832	0.9458920000000	0.0541080000000
0	0.5835	0.9452000000000	0.0548000000000
0	0.5838	0.9456150000000	0.0543850000000
0	0.5841	0.9460380000000	0.0539620000000
0	0.5844	0.9462620000000	0.0537380000000
0	0.5847	0.9467080000000	0.0532920000000
0	0.585	0.9471690000000	0.0528310000000
0	0.5853	0.9473540000000	0.0526460000000
0	0.5856	0.9475380000000	0.0524620000000
0	0.5859	0.9480080000000	0.0519920000000
0	0.5862	0.9484000000000	0.0516000000000
0	0.5865	0.9487770000000	0.0512230000000
0	0.5868	0.9486850000000	0.0513150000000
0	0.5871	0.9485770000000	0.0514230000000
0	0.5874	0.9505620000000	0.0494380000000
0	0.5877	0.9508770000000	0.0491230000000
0	0.588	0.9512000000000	0.0488000000000
0	0.5883	0.9519770000000	0.0480230000000
0	0.5886	0.9527540000000	0.0472460000000
0	0.5889	0.9526690000000	0.0473310000000
0	0.5892	0.9528540000000	0.0471460000000
0	0.5895	0.9530540000000	0.0469460000000
0	0.5898	0.9532850000000	0.0467150000000
0	0.5901	0.9534850000000	0.0465150000000
0	0.5904	0.9536620000000	0.0463380000000
0	0.5907	0.9543230000000	0.0456770000000
0	0.591	0.9550080000000	0.0449920000000
0	0.5913	0.9553690000000	0.0446310000000
0	0.5916	0.9557460000000	0.0442540000000
0	0.5919	0.9563230000000	0.0436770000000
0	0.5922	0.9563310000000	0.0436690000000
0	0.5925	0.9563460000000	0.0436540000000
0	0.5928	0.9572850000000	0.0427150000000
0	0.5931	0.9582310000000	0.0417690000000
0	0.5934	0.9560850000000	0.0439150000000
0	0.5937	0.9576080000000	0.0423920000000
0	0.594	0.9591380000000	0.0408620000000
0	0.5943	0.9588150000000	0.0411850000000
0	0.5946	0.9585000000000	0.0415000000000
0	0.5949	0.9600850000000	0.0399150000000
0	0.5952	0.9603080000000	0.0396920000000
0	0.5955	0.9605770000000	0.0394230000000
0	0.5958	0.9607690000000	0.0392310000000
0	0.5961	0.9609770000000	0.0390230000000
0	0.5964	0.9603620000000	0.0396380000000
0	0.5967	0.9605000000000	0.0395000000000
0	0.597	0.9606540000000	0.0393460000000
0	0.5973	0.9612150000000	0.0387850000000
0	0.5976	0.9617380000000	0.0382620000000
0	0.5979	0.9610000000000	0.0390000000000
0	0.5982	0.9622000000000	0.0378000000000
0	0.5985	0.9634150000000	0.0365850000000
0	0.5988	0.9635770000000	0.0364230000000
0	0.5991	0.9637380000000	0.0362620000000
0	0.5994	0.9636620000000	0.0363380000000
0	0.5997	0.9632920000000	0.0367080000000
0	0.6	0.9629150000000	0.0370850000000
0	0.6003	0.9625310000000	0.0374690000000
0	0.6006	0.9621460000000	0.0378540000000
0	0.6009	0.9614770000000	0.0385230000000
0	0.6012	0.9603000000000	0.0397000000000
0	0.6015	0.9591310000000	0.0408690000000
0	0.6018	0.9581540000000	0.0418460000000
0	0.6021	0.9571770000000	0.0428230000000
0	0.6024	0.9540000000000	0.0460000000000
0	0.6027	0.9531540000000	0.0468460000000
0	0.603	0.9523080000000	0.0476920000000
0	0.6033	0.9502620000000	0.0497380000000
0	0.6036	0.9482380000000	0.0517620000000
0	0.6039	0.9500080000000	0.0499920000000
0	0.6042	0.9486850000000	0.0513150000000
0	0.6045	0.9473690000000	0.0526310000000
0	0.6048	0.9482540000000	0.0517460000000
0	0.6051	0.9491310000000	0.0508690000000
0	0.6054	0.9463920000000	0.0536080000000
0	0.6057	0.9470540000000	0.0529460000000
0	0.606	0.9477150000000	0.0522850000000
0	0.6063	0.9482000000000	0.0518000000000
0	0.6066	0.9486850000000	0.0513150000000
0	0.6069	0.9495460000000	0.0504540000000
0	0.6072	0.9497850000000	0.0502150000000
0	0.6075	0.9500310000000	0.0499690000000
0	0.6078	0.9504540000000	0.0495460000000
0	0.6081	0.9508770000000	0.0491230000000
0	0.6084	0.9541770000000	0.0458230000000
0	0.6087	0.9545920000000	0.0454080000000
0	0.609	0.9549920000000	0.0450080000000
0	0.6093	0.9575620000000	0.0424380000000
0	0.6096	0.9601310000000	0.0398690000000
0	0.6099	0.9615540000000	0.0384460000000
0	0.6102	0.9633310000000	0.0366690000000
0	0.6105	0.9650850000000	0.0349150000000
0	0.6108	0.9659850000000	0.0340150000000
0	0.6111	0.9669000000000	0.0331000000000
0	0.6114	0.9677080000000	0.0322920000000
0	0.6117	0.9683380000000	0.0316620000000
0	0.612	0.9689150000000	0.0310850000000
0	0.6123	0.9685690000000	0.0314310000000
0	0.6126	0.9682000000000	0.0318000000000
0	0.6129	0.9695850000000	0.0304150000000
0	0.6132	0.9678460000000	0.0321540000000
0	0.6135	0.9660690000000	0.0339310000000
0	0.6138	0.9665620000000	0.0334380000000
0	0.6141	0.9670460000000	0.0329540000000
0	0.6144	0.9660310000000	0.0339690000000
0	0.6147	0.9658620000000	0.0341380000000
0	0.615	0.9657000000000	0.0343000000000
0	0.6153	0.9649000000000	0.0351000000000
0	0.6156	0.9641150000000	0.0358850000000
0	0.6159	0.9627380000000	0.0372620000000
0	0.6162	0.9618310000000	0.0381690000000
0	0.6165	0.9609000000000	0.0391000000000
0	0.6168	0.9596080000000	0.0403920000000
0	0.6171	0.9583460000000	0.0416540000000
0	0.6174	0.9579080000000	0.0420920000000
0	0.6177	0.9563690000000	0.0436310000000
0	0.618	0.9548230000000	0.0451770000000
0	0.6183	0.9553310000000	0.0446690000000
0	0.6186	0.9558230000000	0.0441770000000
0	0.6189	0.9547850000000	0.0452150000000
0	0.6192	0.9560230000000	0.0439770000000
0	0.6195	0.9572380000000	0.0427620000000
0	0.6198	0.9575850000000	0.0424150000000
0	0.6201	0.9579460000000	0.0420540000000
0	0.6204	0.9596540000000	0.0403460000000
0	0.6207	0.9606850000000	0.0393150000000
0	0.621	0.9616920000000	0.0383080000000
0	0.6213	0.9616540000000	0.0383460000000
0	0.6216	0.9616150000000	0.0383850000000
0	0.6219	0.9635310000000	0.0364690000000
0	0.6222	0.9640920000000	0.0359080000000
0	0.6225	0.9646540000000	0.0353460000000
0	0.6228	0.9658920000000	0.0341080000000
0	0.6231	0.9671460000000	0.0328540000000
0	0.6234	0.9662620000000	0.0337380000000
0	0.6237	0.9667230000000	0.0332770000000
0	0.624	0.9671920000000	0.0328080000000
0	0.6243	0.9669000000000	0.0331000000000
0	0.6246	0.9666150000000	0.0333850000000
0	0.6249	0.9694460000000	0.0305540000000
0	0.6252	0.9691310000000	0.0308690000000
0	0.6255	0.9688080000000	0.0311920000000
0	0.6258	0.9685460000000	0.0314540000000
0	0.6261	0.9682770000000	0.0317230000000
0	0.6264	0.9659540000000	0.0340460000000
0	0.6267	0.9645150000000	0.0354850000000
0	0.627	0.9630460000000	0.0369540000000
0	0.6273	0.9629770000000	0.0370230000000
0	0.6276	0.9628850000000	0.0371150000000
0	0.6279	0.9593080000000	0.0406920000000
0	0.6282	0.9590540000000	0.0409460000000
0	0.6285	0.9587850000000	0.0412150000000
0	0.6288	0.9582000000000	0.0418000000000
0	0.6291	0.9575850000000	0.0424150000000
0	0.6294	0.9595540000000	0.0404460000000
0	0.6297	0.9589690000000	0.0410310000000
0	0.63	0.9583850000000	0.0416150000000
0	0.6303	0.9606850000000	0.0393150000000
0	0.6306	0.9630080000000	0.0369920000000
0	0.6309	0.9627380000000	0.0372620000000
0	0.6312	0.9639230000000	0.0360770000000
0	0.6315	0.9651310000000	0.0348690000000
0	0.6318	0.9667460000000	0.0332540000000
0	0.6321	0.9683620000000	0.0316380000000
0	0.6324	0.9696540000000	0.0303460000000
0	0.6327	0.9694460000000	0.0305540000000
0	0.633	0.9692000000000	0.0308000000000
0	0.6333	0.9696080000000	0.0303920000000
0	0.6336	0.9700230000000	0.0299770000000
0	0.6339	0.9701770000000	0.0298230000000
0	0.6342	0.9689620000000	0.0310380000000
0	0.6345	0.9677770000000	0.0322230000000
0	0.6348	0.9691770000000	0.0308230000000
0	0.6351	0.9705770000000	0.0294230000000
0	0.6354	0.9686000000000	0.0314000000000
0	0.6357	0.9691000000000	0.0309000000000
0	0.636	0.9695770000000	0.0304230000000
0	0.6363	0.9696690000000	0.0303310000000
0	0.6366	0.9697620000000	0.0302380000000
0	0.6369	0.9689080000000	0.0310920000000
0	0.6372	0.9694770000000	0.0305230000000
0	0.6375	0.9700540000000	0.0299460000000
0	0.6378	0.9695000000000	0.0305000000000
0	0.6381	0.9689850000000	0.0310150000000
0	0.6384	0.9694150000000	0.0305850000000
0	0.6387	0.9678310000000	0.0321690000000
0	0.639	0.9662380000000	0.0337620000000
0	0.6393	0.9667690000000	0.0332310000000
0	0.6396	0.9673150000000	0.0326850000000
0	0.6399	0.9672850000000	0.0327150000000
0	0.6402	0.9673310000000	0.0326690000000
0	0.6405	0.9673380000000	0.0326620000000
0	0.6408	0.9670920000000	0.0329080000000
0	0.6411	0.9668080000000	0.0331920000000
0	0.6414	0.9668150000000	0.0331850000000
0	0.6417	0.9676920000000	0.0323080000000
0	0.642	0.9686000000000	0.0314000000000
0	0.6423	0.9682460000000	0.0317540000000
0	0.6426	0.9679310000000	0.0320690000000
0	0.6429	0.9703230000000	0.0296770000000
0	0.6432	0.9696770000000	0.0303230000000
0	0.6435	0.9690620000000	0.0309380000000
0	0.6438	0.9700150000000	0.0299850000000
0	0.6441	0.9709920000000	0.0290080000000
0	0.6444	0.9702690000000	0.0297310000000
0	0.6447	0.9713000000000	0.0287000000000
0	0.645	0.9723230000000	0.0276770000000
0	0.6453	0.9719770000000	0.0280230000000
0	0.6456	0.9716310000000	0.0283690000000
0	0.6459	0.9720230000000	0.0279770000000
0	0.6462	0.9722380000000	0.0277620000000
0	0.6465	0.9724230000000	0.0275770000000
0	0.6468	0.9719310000000	0.0280690000000
0	0.6471	0.9714150000000	0.0285850000000
0	0.6474	0.9714770000000	0.0285230000000
0	0.6477	0.9702080000000	0.0297920000000
0	0.648	0.9689310000000	0.0310690000000
0	0.6483	0.9689460000000	0.0310540000000
0	0.6486	0.9689690000000	0.0310310000000
0	0.6489	0.9652770000000	0.0347230000000
0	0.6492	0.9644690000000	0.0355310000000
0	0.6495	0.9636920000000	0.0363080000000
0	0.6498	0.9635310000000	0.0364690000000
0	0.6501	0.9634150000000	0.0365850000000
0	0.6504	0.9612620000000	0.0387380000000
0	0.6507	0.9591080000000	0.0408920000000
0	0.651	0.9584690000000	0.0415310000000
0	0.6513	0.9589690000000	0.0410310000000
0	0.6516	0.9594620000000	0.0405380000000
0	0.6519	0.9590150000000	0.0409850000000
0	0.6522	0.9585770000000	0.0414230000000
0	0.6525	0.9593540000000	0.0406460000000
0	0.6528	0.9606620000000	0.0393380000000
0	0.6531	0.9619230000000	0.0380770000000
0	0.6534	0.9627380000000	0.0372620000000
0	0.6537	0.9635310000000	0.0364690000000
0	0.654	0.9657080000000	0.0342920000000
0	0.6543	0.9668000000000	0.0332000000000
0	0.6546	0.9678850000000	0.0321150000000
0	0.6549	0.9682690000000	0.0317310000000
0	0.6552	0.9686620000000	0.0313380000000
0	0.6555	0.9704620000000	0.0295380000000
0	0.6558	0.9714150000000	0.0285850000000
0	0.6561	0.9723620000000	0.0276380000000
0	0.6564	0.9718230000000	0.0281770000000
0	0.6567	0.9712690000000	0.0287310000000
0	0.657	0.9733150000000	0.0266850000000
0	0.6573	0.9730690000000	0.0269310000000
0	0.6576	0.9728460000000	0.0271540000000
0	0.6579	0.9725460000000	0.0274540000000
0	0.6582	0.9722310000000	0.0277690000000
0	0.6585	0.9733230000000	0.0266770000000
0	0.6588	0.9726460000000	0.0273540000000
0	0.6591	0.9719770000000	0.0280230000000
0	0.6594	0.9707460000000	0.0292540000000
0	0.6597	0.9695310000000	0.0304690000000
0	0.66	0.9699540000000	0.0300460000000
0	0.6603	0.9687920000000	0.0312080000000
0	0.6606	0.9676620000000	0.0323380000000
0	0.6609	0.9663690000000	0.0336310000000
0	0.6612	0.9651080000000	0.0348920000000
0	0.6615	0.9657310000000	0.0342690000000
0	0.6618	0.9648380000000	0.0351620000000
0	0.6621	0.9639460000000	0.0360540000000
0	0.6624	0.9633230000000	0.0366770000000
0	0.6627	0.9626920000000	0.0373080000000
0	0.663	0.9639770000000	0.0360230000000
0	0.6633	0.9629540000000	0.0370460000000
0	0.6636	0.9619620000000	0.0380380000000
0	0.6639	0.9626380000000	0.0373620000000
0	0.6642	0.9633080000000	0.0366920000000
0	0.6645	0.9643080000000	0.0356920000000
0	0.6648	0.9640690000000	0.0359310000000
0	0.6651	0.9638310000000	0.0361690000000
0	0.6654	0.9647150000000	0.0352850000000
0	0.6657	0.9656000000000	0.0344000000000
0	0.666	0.9674770000000	0.0325230000000
0	0.6663	0.9674540000000	0.0325460000000
0	0.6666	0.9673770000000	0.0326230000000
0	0.6669	0.9684920000000	0.0315080000000
0	0.6672	0.9696230000000	0.0303770000000
0	0.6675	0.9710620000000	0.0289380000000
0	0.6678	0.9711150000000	0.0288850000000
0	0.6681	0.9711770000000	0.0288230000000
0	0.6684	0.9726230000000	0.0273770000000
0	0.6687	0.9740690000000	0.0259310000000
0	0.669	0.9735380000000	0.0264620000000
0	0.6693	0.9730310000000	0.0269690000000
0	0.6696	0.9725540000000	0.0274460000000
0	0.6699	0.9731080000000	0.0268920000000
0	0.6702	0.9736770000000	0.0263230000000
0	0.6705	0.9734150000000	0.0265850000000
0	0.6708	0.9723150000000	0.0276850000000
0	0.6711	0.9712310000000	0.0287690000000
0	0.6714	0.9717850000000	0.0282150000000
0	0.6717	0.9723460000000	0.0276540000000
0	0.672	0.9720920000000	0.0279080000000
0	0.6723	0.9712690000000	0.0287310000000
0	0.6726	0.9704310000000	0.0295690000000
0	0.6729	0.9717460000000	0.0282540000000
0	0.6732	0.9730690000000	0.0269310000000
0	0.6735	0.9717310000000	0.0282690000000
0	0.6738	0.9714920000000	0.0285080000000
0	0.6741	0.9712540000000	0.0287460000000
0	0.6744	0.9719150000000	0.0280850000000
0	0.6747	0.9725850000000	0.0274150000000
0	0.675	0.9708150000000	0.0291850000000
0	0.6753	0.9697380000000	0.0302620000000
0	0.6756	0.9686770000000	0.0313230000000
0	0.6759	0.9682000000000	0.0318000000000
0	0.6762	0.9677230000000	0.0322770000000
0	0.6765	0.9658310000000	0.0341690000000
0	0.6768	0.9643230000000	0.0356770000000
0	0.6771	0.9628620000000	0.0371380000000
0	0.6774	0.9631310000000	0.0368690000000
0	0.6777	0.9634000000000	0.0366000000000
0	0.678	0.9613460000000	0.0386540000000
0	0.6783	0.9610310000000	0.0389690000000
0	0.6786	0.9607000000000	0.0393000000000
0	0.6789	0.9620920000000	0.0379080000000
0	0.6792	0.9634770000000	0.0365230000000
0	0.6795	0.9622150000000	0.0377850000000
0	0.6798	0.9628000000000	0.0372000000000
0	0.6801	0.9634000000000	0.0366000000000
0	0.6804	0.9643460000000	0.0356540000000
0	0.6807	0.9652850000000	0.0347150000000
0	0.681	0.9650920000000	0.0349080000000
0	0.6813	0.9650850000000	0.0349150000000
0	0.6816	0.9650620000000	0.0349380000000
0	0.6819	0.9653310000000	0.0346690000000
0	0.6822	0.9656080000000	0.0343920000000
0	0.6825	0.9646310000000	0.0353690000000
0	0.6828	0.9647230000000	0.0352770000000
0	0.6831	0.9648150000000	0.0351850000000
0	0.6834	0.9641080000000	0.0358920000000
0	0.6837	0.9634230000000	0.0365770000000
0	0.684	0.9610000000000	0.0390000000000
0	0.6843	0.9595080000000	0.0404920000000
0	0.6846	0.9580230000000	0.0419770000000
0	0.6849	0.9536850000000	0.0463150000000
0	0.6852	0.9493620000000	0.0506380000000
0	0.6855	0.9439460000000	0.0560540000000
0	0.6858	0.9369460000000	0.0630540000000
0	0.6861	0.9299380000000	0.0700620000000
0	0.6864	0.9201310000000	0.0798690000000
0	0.6867	0.9103230000000	0.0896770000000
0	0.687	0.8982850000000	0.1017150000000
0	0.6873	0.8856380000000	0.1143620000000
0	0.6876	0.8730080000000	0.1269920000000
0	0.6879	0.8561620000000	0.1438380000000
0	0.6882	0.8393460000000	0.1606540000000
0	0.6885	0.8186310000000	0.1813690000000
0	0.6888	0.7951690000000	0.2048310000000
0	0.6891	0.7716460000000	0.2283540000000
0	0.6894	0.7388850000000	0.2611150000000
0	0.6897	0.7061850000000	0.2938150000000
0	0.69	0.6674620000000	0.3325380000000
0	0.6903	0.6258310000000	0.3741690000000
0	0.6906	0.5841080000000	0.4158920000000
0	0.6909	0.5367000000000	0.4633000000000
0	0.6912	0.4894310000000	0.5105690000000
0	0.6915	0.4424000000000	0.5576000000000
0	0.6918	0.3972690000000	0.6027310000000
0	0.6921	0.3521690000000	0.6478310000000
0	0.6924	0.3123620000000	0.6876380000000
0	0.6927	0.2726850000000	0.7273150000000
0	0.693	0.2381850000000	0.7618150000000
0	0.6933	0.2087920000000	0.7912080000000
0	0.6936	0.1794080000000	0.8205920000000
0	0.6939	0.1562890000000	0.8437110000000
0	0.6942	0.1331980000000	0.8668020000000
0	0.6945	0.1152890000000	0.8847110000000
0	0.6948	0.1011640000000	0.8988360000000
0	0.6951	0.0870054000000	0.9129946000000
0	0.6954	0.0769954000000	0.9230046000000
0	0.6957	0.0670215000000	0.9329785000000
0	0.696	0.0593700000000	0.9406300000000
0	0.6963	0.0535846000000	0.9464154000000
0	0.6966	0.0478108000000	0.9521892000000
0	0.6969	0.0437015000000	0.9562985000000
0	0.6972	0.0396046000000	0.9603954000000
0	0.6975	0.0364554000000	0.9635446000000
0	0.6978	0.0338315000000	0.9661685000000
0	0.6981	0.0312115000000	0.9687885000000
0	0.6984	0.0289554000000	0.9710446000000
0	0.6987	0.0267031000000	0.9732969000000
0	0.699	0.0247454000000	0.9752546000000
0	0.6993	0.0227623000000	0.9772377000000
0	0.6996	0.0207777000000	0.9792223000000
0	0.6999	0.0188600000000	0.9811400000000
0	0.7002	0.0169469000000	0.9830531000000
0	0.7005	0.0150615000000	0.9849385000000
0	0.7008	0.0134629000000	0.9865371000000
0	0.7011	0.0118648000000	0.9881352000000
0	0.7014	0.0104508000000	0.9895492000000
0	0.7017	0.0090396200000	0.9909603800000
0	0.702	0.0078780800000	0.9921219200000
0	0.7023	0.0069632300000	0.9930367700000
0	0.7026	0.0060507700000	0.9939492300000
0	0.7029	0.0053260800000	0.9946739200000
0	0.7032	0.0046024600000	0.9953975400000
0	0.7035	0.0040528500000	0.9959471500000
0	0.7038	0.0035701500000	0.9964298500000
0	0.7041	0.0030883800000	0.9969116200000
0	0.7044	0.0027573800000	0.9972426200000
0	0.7047	0.0024266900000	0.9975733100000
0	0.705	0.0022201500000	0.9977798500000
0	0.7053	0.0020069200000	0.9979930800000
0	0.7056	0.0017941500000	0.9982058500000
0	0.7059	0.0016678500000	0.9983321500000
0	0.7062	0.0015415400000	0.9984584600000
0	0.7065	0.0014310800000	0.9985689200000
0	0.7068	0.0013526200000	0.9986473800000
0	0.7071	0.0012744300000	0.9987255700000
0	0.7074	0.0011583500000	0.9988416500000
0	0.7077	0.0010422200000	0.9989577800000
0	0.708	0.0009794380000	0.9990205620000
0	0.7083	0.0009653310000	0.9990346690000
0	0.7086	0.0009510770000	0.9990489230000
0	0.7089	0.0008634690000	0.9991365310000
0	0.7092	0.0007758230000	0.9992241770000
0	0.7095	0.0009151770000	0.9990848230000
0	0.7098	0.0007795380000	0.9992204620000
0	0.7101	0.0006437000000	0.9993563000000
0	0.7104	0.0006115000000	0.9993885000000
0	0.7107	0.0005792850000	0.9994207150000
0	0.711	0.0006067310000	0.9993932690000
0	0.7113	0.0005790540000	0.9994209460000
0	0.7116	0.0005514230000	0.9994485770000
0	0.7119	0.0005478380000	0.9994521620000
0	0.7122	0.0005442460000	0.9994557540000
0	0.7125	0.0004599460000	0.9995400540000
0	0.7128	0.0003950850000	0.9996049150000
0	0.7131	0.0003348540000	0.9996651460000
0	0.7134	0.0004011620000	0.9995988380000
0	0.7137	0.0004718690000	0.9995281310000
0	0.714	0.0004569850000	0.9995430150000
0	0.7143	0.0003932770000	0.9996067230000
0	0.7146	0.0003297540000	0.9996702460000
0	0.7149	0.0003401150000	0.9996598850000
0	0.7152	0.0003504850000	0.9996495150000
0	0.7155	0.0003525310000	0.9996474690000
0	0.7158	0.0003089310000	0.9996910690000
0	0.7161	0.0002654510000	0.9997345490000
0	0.7164	0.0002467480000	0.9997532520000
0	0.7167	0.0002280940000	0.9997719060000
0	0.717	0.0002496020000	0.9997503980000
0	0.7173	0.0002103520000	0.9997896480000
0	0.7176	0.0001718910000	0.9998281090000
0	0.7179	0.0001749040000	0.9998250960000
0	0.7182	0.0001923630000	0.9998076370000
0	0.7185	0.0002095460000	0.9997904540000
0	0.7188	0.0002046690000	0.9997953310000
0	0.7191	0.0002098880000	0.9997901120000
0	0.7194	0.0001936880000	0.9998063120000
0	0.7197	0.0001868680000	0.9998131320000
0	0.72	0.0002378310000	0.9997621690000
0	0.7203	0.0002481090000	0.9997518910000
0	0.7206	0.0002597920000	0.9997402080000
0	0.7209	0.0002105720000	0.9997894280000
0	0.7212	0.0001987550000	0.9998012450000
0	0.7215	0.0001596520000	0.9998403480000
0	0.7218	0.0001619450000	0.9998380550000
0	0.7221	0.0001785660000	0.9998214340000
0	0.7224	0.0001794140000	0.9998205860000
0	0.7227	0.0002161230000	0.9997838770000
0	0.723	0.0001642370000	0.9998357630000
0	0.7233	0.0001616030000	0.9998383970000
0	0.7236	0.0001732810000	0.9998267190000
0	0.7239	0.0001310320000	0.9998689680000
0	0.7242	0.0001002780000	0.9998997220000
0	0.7245	0.0001752690000	0.9998247310000
0	0.7248	0.0001366140000	0.9998633860000
0	0.7251	0.0001258760000	0.9998741240000
0	0.7254	0.0001401220000	0.9998598780000
0	0.7257	0.0001808020000	0.9998191980000
0	0.726	0.0001612110000	0.9998387890000
0	0.7263	0.0001287590000	0.9998712410000
0	0.7266	0.0001298400000	0.9998701600000
0	0.7269	0.0001322990000	0.9998677010000
0	0.7272	0.0001361630000	0.9998638370000
0	0.7275	0.0001636740000	0.9998363260000
0	0.7278	0.0001576400000	0.9998423600000
0	0.7281	0.0001572920000	0.9998427080000
0	0.7284	0.0001308610000	0.9998691390000
0	0.7287	0.0001307560000	0.9998692440000
0	0.729	0.0002086450000	0.9997913550000
0	0.7293	0.0001746890000	0.9998253110000
0	0.7296	0.0001499380000	0.9998500620000
0	0.7299	0.0001413210000	0.9998586790000
0	0.7302	0.0001596730000	0.9998403270000
0	0.7305	0.0001849930000	0.9998150070000
0	0.7308	0.0001216000000	0.9998784000000
0	0.7311	0.0000865377000	0.9999134623000
0	0.7314	0.0001101970000	0.9998898030000
0	0.7317	0.0001600090000	0.9998399910000
0	0.732	0.0001186830000	0.9998813170000
0	0.7323	0.0001374910000	0.9998625090000
0	0.7326	0.0001873970000	0.9998126030000
0	0.7329	0.0001250590000	0.9998749410000
0	0.7332	0.0000748127000	0.9999251873000
0	0.7335	0.0000994554000	0.9999005446000
0	0.7338	0.0001242200000	0.9998757800000
0	0.7341	0.0001744170000	0.9998255830000
0	0.7344	0.0001382780000	0.9998617220000
0	0.7347	0.0001261560000	0.9998738440000
0	0.735	0.0000669315000	0.9999330685000
0	0.7353	0.0001011050000	0.9998988950000
0	0.7356	0.0001761620000	0.9998238380000
0	0.7359	0.0001422810000	0.9998577190000
0	0.7362	0.0001422190000	0.9998577810000
0	0.7365	0.0001447770000	0.9998552230000
0	0.7368	0.0001153050000	0.9998846950000
0	0.7371	0.0001286720000	0.9998713280000
0	0.7374	0.0001257380000	0.9998742620000
0	0.7377	0.0001579080000	0.9998420920000
0	0.738	0.0001009590000	0.9998990410000
0	0.7383	0.0000704354000	0.9999295646000
0	0.7386	0.0000595498000	0.9999404502000
0	0.7389	0.0000720923000	0.9999279077000
0	0.7392	0.0001265680000	0.9998734320000
0	0.7395	0.0000559231000	0.9999440769000
0	0.7398	0.0000485746000	0.9999514254000
0	0.7401	0.0000769037000	0.9999230963000
0	0.7404	0.0000551669000	0.9999448331000
0	0.7407	0.0000795423000	0.9999204577000
0	0.741	0.0000920923000	0.9999079077000
0	0.7413	0.0000833431000	0.9999166569000
0	0.7416	0.0001052920000	0.9998947080000
0	0.7419	0.0000992538000	0.9999007462000
0	0.7422	0.0001106290000	0.9998893710000
0	0.7425	0.0000745285000	0.9999254715000
0	0.7428	0.0000668531000	0.9999331469000
0	0.7431	0.0000870338000	0.9999129662000
0	0.7434	0.0000998169000	0.9999001831000
0	0.7437	0.0001459660000	0.9998540340000
0	0.744	0.0000522038000	0.9999477962000
0	0.7443	0.0000852062000	0.9999147938000
0	0.7446	0.0001598740000	0.9998401260000
0	0.7449	0.0000985900000	0.9999014100000
0	0.7452	0.0000762800000	0.9999237200000
0	0.7455	0.0001340280000	0.9998659720000
0	0.7458	0.0000909523000	0.9999090477000
0	0.7461	0.0000971754000	0.9999028246000
0	0.7464	0.0001105290000	0.9998894710000
0	0.7467	0.0001494580000	0.9998505420000
0	0.747	0.0000713605000	0.9999286395000
0	0.7473	0.0000813762000	0.9999186238000
0	0.7476	0.0001183880000	0.9998816120000
0	0.7479	0.0000985811000	0.9999014189000
0	0.7482	0.0001112970000	0.9998887030000
0	0.7485	0.0001108480000	0.9998891520000
0	0.7488	0.0001076640000	0.9998923360000
0	0.7491	0.0001501640000	0.9998498360000
0	0.7494	0.0001366420000	0.9998633580000
0	0.7497	0.0001480170000	0.9998519830000
0	0.75	0.0000595938000	0.9999404062000
0	0.751	0.0000006904490	0.9999993095510
0	0.752	0.0000002350630	0.9999997649370
0	0.753	0.0000005710350	0.9999994289650
0	0.754	0.0000006152520	0.9999993847480
0	0.755	0.0000004635340	0.9999995364660
0	0.756	0.0000003962910	0.9999996037090
0	0.757	0.0000004797320	0.9999995202680
0	0.758	0.0000005270610	0.9999994729390
0	0.759	0.0000008075570	0.9999991924430
0	0.76	0.0000006945170	0.9999993054830
0	0.761	0.0000011084100	0.9999988915900
0	0.762	0.0000010329100	0.9999989670900
0	0.763	0.0000008837040	0.9999991162960
0	0.764	0.0000010560500	0.9999989439500
0	0.765	0.0000007084670	0.9999992915330
0	0.766	0.0000004367970	0.9999995632030
0	0.767	0.0000007734000	0.9999992266000
0	0.768	0.0000005958870	0.9999994041130
0	0.769	0.0000006823570	0.9999993176430
0	0.77	0.0000010859900	0.9999989140100
0	0.771	0.0000011013600	0.9999988986400
0	0.772	0.0000009107240	0.9999990892760
0	0.773	0.0000010141000	0.9999989859000
0	0.774	0.0000007917770	0.9999992082230
0	0.775	0.0000010317900	0.9999989682100
0	0.776	0.0000006277640	0.9999993722360
0	0.777	0.0000004572820	0.9999995427180
0	0.778	0.0000006349580	0.9999993650420
0	0.779	0.0000003114290	0.9999996885710
0	0.78	0.0000003559900	0.9999996440100
0	0.781	0.0000000001000	0.9999999999000
0	0.782	0.0000004693760	0.9999995306240
0	0.783	0.0000008729120	0.9999991270880
0	0.784	0.0000007791830	0.9999992208170
0	0.785	0.0000004262130	0.9999995737870
0	0.786	0.0000011826800	0.9999988173200
0	0.787	0.0000006749710	0.9999993250290
0	0.788	0.0000006868030	0.9999993131970
0	0.789	0.0000010275700	0.9999989724300
0	0.79	0.0000005068050	0.9999994931950
0	0.791	0.0000009341420	0.9999990658580
0	0.792	0.0000004980500	0.9999995019500
0	0.793	0.0000006586250	0.9999993413750
0	0.794	0.0000008907690	0.9999991092310
0	0.795	0.0000008688960	0.9999991311040
0	0.796	0.0000003665370	0.9999996334630
0	0.797	0.0000013883100	0.9999986116900
0	0.798	0.0000014119700	0.9999985880300
0	0.799	0.0000010481900	0.9999989518100
0	0.8	0.0000005648290	0.9999994351710
0	0.801	0.0000008152040	0.9999991847960
0	0.802	0.0000008499110	0.9999991500890
0	0.803	0.0000000001000	0.9999999999000
0	0.804	0.0000008851850	0.9999991148150
0	0.805	0.0000003173180	0.9999996826820
0	0.806	0.0000004322590	0.9999995677410
0	0.807	0.0000003586280	0.9999996413720
0	0.808	0.0000005228800	0.9999994771200
0	0.809	0.0000007826300	0.9999992173700
0	0.81	0.0000004443230	0.9999995556770
0	0.811	0.0000004947380	0.9999995052620
0	0.812	0.0000007242250	0.9999992757750
0	0.813	0.0000019785600	0.9999980214400
0	0.814	0.0000013570600	0.9999986429400
0	0.815	0.0000013281200	0.9999986718800
0	0.816	0.0000018717700	0.9999981282300
0	0.817	0.0000007332210	0.9999992667790
0	0.818	0.0000009794530	0.9999990205470
0	0.819	0.0000012033600	0.9999987966400
0	0.82	0.0000021754700	0.9999978245300
0	0.821	0.0000045493500	0.9999954506500
0	0.822	0.0000094270800	0.9999905729200
0	0.823	0.0000103364000	0.9999896636000
0	0.824	0.0000061420200	0.9999938579800
0	0.825	0.0000018063500	0.9999981936500
0	0.826	0.0000007036060	0.9999992963940
0	0.827	0.0000012743500	0.9999987256500
0	0.828	0.0000010972100	0.9999989027900
0	0.829	0.0000003509600	0.9999996490400
0	0.83	0.0000006000310	0.9999993999690
0	0.831	0.0000025092800	0.9999974907200
0	0.832	0.0000019507100	0.9999980492900
0	0.833	0.0000014251100	0.9999985748900
0	0.834	0.0000010644600	0.9999989355400
0	0.835	0.0000001019960	0.9999998980040
0	0.836	0.0000001424250	0.9999998575750
0	0.837	0.0000000519890	0.9999999480110
0	0.838	0.0000009422830	0.9999990577170
0	0.839	0.0000000001000	0.9999999999000
0	0.84	0.0000000001000	0.9999999999000
0	0.841	0.0000010258400	0.9999989741600
0	0.842	0.0000003126870	0.9999996873130
0	0.843	0.0000000001000	0.9999999999000
0	0.844	0.0000008437540	0.9999991562460
0	0.845	0.0000000001000	0.9999999999000
0	0.846	0.0000004303670	0.9999995696330
0	0.847	0.0000004935580	0.9999995064420
0	0.848	0.0000000001000	0.9999999999000
0	0.849	0.0000005840590	0.9999994159410
0	0.85	0.0000000905051	0.9999999094949
0	0.851	0.0000005043730	0.9999994956270
0	0.852	0.0000000232682	0.9999999767318
0	0.853	0.0000002109320	0.9999997890680
0	0.854	0.0000004120920	0.9999995879080
0	0.855	0.0000000001000	0.9999999999000
0	0.856	0.0000001229300	0.9999998770700
0	0.857	0.0000000306559	0.9999999693441
0	0.858	0.0000001357140	0.9999998642860
0	0.859	0.0000002655710	0.9999997344290
0	0.86	0.0000002272760	0.9999997727240
0	0.861	0.0000002201240	0.9999997798760
0	0.862	0.0000004831120	0.9999995168880
0	0.863	0.0000001889260	0.9999998110740
0	0.864	0.0000004069580	0.9999995930420
0	0.865	0.0000006274930	0.9999993725070
0	0.866	0.0000001985050	0.9999998014950
0	0.867	0.0000007587740	0.9999992412260
0	0.868	0.0000007399010	0.9999992600990
0	0.869	0.0000005004740	0.9999994995260
0	0.87	0.0000004847880	0.9999995152120
0	0.871	0.0000002131600	0.9999997868400
0	0.872	0.0000001437100	0.9999998562900
0	0.873	0.0000001338490	0.9999998661510
0	0.874	0.0000000262222	0.9999999737778
0	0.875	0.0000003508960	0.9999996491040
0	0.876	0.0000001372060	0.9999998627940
0	0.877	0.0000002248560	0.9999997751440
0	0.878	0.0000000001000	0.9999999999000
0	0.879	0.0000000001000	0.9999999999000
0	0.88	0.0000000874499	0.9999999125501
0	0.881	0.0000000001000	0.9999999999000
0	0.882	0.0000000001000	0.9999999999000
0	0.883	0.0000001259510	0.9999998740490
0	0.884	0.0000000001000	0.9999999999000
0	0.885	0.0000004368620	0.9999995631380
0	0.886	0.0000015285700	0.9999984714300
0	0.887	0.0000025940900	0.9999974059100
0	0.888	0.0000041631000	0.9999958369000
0	0.889	0.0000051567700	0.9999948432300
0	0.89	0.0000072165300	0.9999927834700
0	0.891	0.0000079537600	0.9999920462400
0	0.892	0.0000071490700	0.9999928509300
0	0.893	0.0000063489700	0.9999936510300
0	0.894	0.0000038783800	0.9999961216200
0	0.895	0.0000023282800	0.9999976717200
0	0.896	0.0000011202600	0.9999988797400
0	0.897	0.0000005480940	0.9999994519060
0	0.898	0.0000000001000	0.9999999999000
0	0.899	0.0000003149430	0.9999996850570
0	0.9	0.0000000937308	0.9999999062692
0	0.901	0.0000000625110	0.9999999374890
0	0.902	0.0000000001000	0.9999999999000
0	0.903	0.0000003678500	0.9999996321500
0	0.904	0.0000000001000	0.9999999999000
0	0.905	0.0000000001000	0.9999999999000
0	0.906	0.0000001355930	0.9999998644070
0	0.907	0.0000000001000	0.9999999999000
0	0.908	0.0000000001000	0.9999999999000
0	0.909	0.0000000511191	0.9999999488809
0	0.91	0.0000004895190	0.9999995104810
0	0.911	0.0000000001000	0.9999999999000
0	0.912	0.0000001069270	0.9999998930730
0	0.913	0.0000000001000	0.9999999999000
0	0.914	0.0000001518890	0.9999998481110
0	0.915	0.0000000001000	0.9999999999000
0	0.916	0.0000000001000	0.9999999999000
0	0.917	0.0000003355220	0.9999996644780
0	0.918	0.0000005310450	0.9999994689550
0	0.919	0.0000002170350	0.9999997829650
0	0.92	0.0000000622372	0.9999999377628
0	0.921	0.0000003227150	0.9999996772850
0	0.922	0.0000003061600	0.9999996938400
0	0.923	0.0000000001000	0.9999999999000
0	0.924	0.0000001499410	0.9999998500590
0	0.925	0.0000000001000	0.9999999999000
0	0.926	0.0000000001000	0.9999999999000
0	0.927	0.0000000001000	0.9999999999000
0	0.928	0.0000001212150	0.9999998787850
0	0.929	0.0000002312700	0.9999997687300
0	0.93	0.0000003563270	0.9999996436730
0	0.931	0.0000004253230	0.9999995746770
0	0.932	0.0000002631610	0.9999997368390
0	0.933	0.0000000001000	0.9999999999000
0	0.934	0.0000000001000	0.9999999999000
0	0.935	0.0000000001000	0.9999999999000
0	0.936	0.0000002788840	0.9999997211160
0	0.937	0.0000003780010	0.9999996219990
0	0.938	0.0000006054260	0.9999993945740
0	0.939	0.0000004830200	0.9999995169800
0	0.94	0.0000000001000	0.9999999999000
0	0.941	0.0000000084625	0.9999999915375
0	0.942	0.0000001395350	0.9999998604650
0	0.943	0.0000000001000	0.9999999999000
0	0.944	0.0000000001000	0.9999999999000
0	0.945	0.0000000001000	0.9999999999000
0	0.946	0.0000000001000	0.9999999999000
0	0.947	0.0000002886390	0.9999997113610
0	0.948	0.0000000001000	0.9999999999000
0	0.949	0.0000000001000	0.9999999999000
0	0.95	0.0000001330160	0.9999998669840
0	0.951	0.0000000001000	0.9999999999000
0	0.952	0.0000000001000	0.9999999999000
0	0.953	0.0000000001000	0.9999999999000
0	0.954	0.0000002640890	0.9999997359110
0	0.955	0.0000000001000	0.9999999999000
0	0.956	0.0000001450540	0.9999998549460
0	0.957	0.0000003905610	0.9999996094390
0	0.958	0.0000000001000	0.9999999999000
0	0.959	0.0000003663640	0.9999996336360
0	0.96	0.0000000001000	0.9999999999000
0	0.961	0.0000001925090	0.9999998074910
0	0.962	0.0000000001000	0.9999999999000
0	0.963	0.0000001069630	0.9999998930370
0	0.964	0.0000000129032	0.9999999870968
0	0.965	0.0000002995230	0.9999997004770
0	0.966	0.0000000982627	0.9999999017373
0	0.967	0.0000002007100	0.9999997992900
0	0.968	0.0000000001000	0.9999999999000
0	0.969	0.0000000001000	0.9999999999000
0	0.97	0.0000001597700	0.9999998402300
0	0.971	0.0000001387040	0.9999998612960
0	0.972	0.0000005872220	0.9999994127780
0	0.973	0.0000000001000	0.9999999999000
0	0.974	0.0000000869177	0.9999999130823
0	0.975	0.0000000389689	0.9999999610311
0	0.976	0.0000004056410	0.9999995943590
0	0.977	0.0000001129450	0.9999998870550
0	0.978	0.0000000001000	0.9999999999000
0	0.979	0.0000000001000	0.9999999999000
0	0.98	0.0000005512890	0.9999994487110
0	0.981	0.0000004197960	0.9999995802040
0	0.982	0.0000002033330	0.9999997966670
0	0.983	0.0000006132300	0.9999993867700
0	0.984	0.0000047138200	0.9999952861800
0	0.985	0.0000127147000	0.9999872853000
0	0.986	0.0000189798000	0.9999810202000
0	0.987	0.0000127534000	0.9999872466000
0	0.988	0.0000040763700	0.9999959236300
0	0.989	0.0000013155700	0.9999986844300
0	0.99	0.0000010295500	0.9999989704500
0	0.991	0.0000006700560	0.9999993299440
0	0.992	0.0000004785040	0.9999995214960
0	0.993	0.0000007658450	0.9999992341550
0	0.994	0.0000004557110	0.9999995442890
0	0.995	0.0000006347850	0.9999993652150
0	0.996	0.0000000001000	0.9999999999000
0	0.997	0.0000003824780	0.9999996175220
0	0.998	0.0000000736472	0.9999999263528
0	0.999	0.0000005054830	0.9999994945170
0	1	0.0000000001000	0.9999999999000
0	1.001	0.0000001048470	0.9999998951530
0	1.002	0.0000001421640	0.9999998578360
0	1.003	0.0000000398076	0.9999999601924
0	1.004	0.0000000307778	0.9999999692222
0	1.005	0.0000000209914	0.9999999790086
0	1.006	0.0000000001000	0.9999999999000
0	1.007	0.0000000001000	0.9999999999000
0	1.008	0.0000000001000	0.9999999999000
0	1.009	0.0000001707310	0.9999998292690
0	1.01	0.0000003271050	0.9999996728950
0	1.011	0.0000001924710	0.9999998075290
0	1.012	0.0000007144640	0.9999992855360
0	1.013	0.0000000001000	0.9999999999000
0	1.014	0.0000000001000	0.9999999999000
0	1.015	0.0000002438650	0.9999997561350
0	1.016	0.0000003461230	0.9999996538770
0	1.017	0.0000000132082	0.9999999867918
0	1.018	0.0000002423090	0.9999997576910
0	1.019	0.0000000001000	0.9999999999000
0	1.02	0.0000002158250	0.9999997841750
0	1.021	0.0000004605140	0.9999995394860
0	1.022	0.0000002876680	0.9999997123320
0	1.023	0.0000000001000	0.9999999999000
0	1.024	0.0000004269980	0.9999995730020
0	1.025	0.0000000001000	0.9999999999000
0	1.026	0.0000004273850	0.9999995726150
0	1.027	0.0000006598310	0.9999993401690
0	1.028	0.0000008682930	0.9999991317070
0	1.029	0.0000015331500	0.9999984668500
0	1.03	0.0000018443900	0.9999981556100
0	1.031	0.0000036669500	0.9999963330500
0	1.032	0.0000061009600	0.9999938990400
0	1.033	0.0000103357000	0.9999896643000
0	1.034	0.0000180768000	0.9999819232000
0	1.035	0.0000273576000	0.9999726424000
0	1.036	0.0000376208000	0.9999623792000
0	1.037	0.0000458574000	0.9999541426000
0	1.038	0.0000528737000	0.9999471263000
0	1.039	0.0000584877000	0.9999415123000
0	1.04	0.0000609961000	0.9999390039000
0	1.041	0.0000594492000	0.9999405508000
0	1.042	0.0000520366000	0.9999479634000
0	1.043	0.0000399311000	0.9999600689000
0	1.044	0.0000294642000	0.9999705358000
0	1.045	0.0000209119000	0.9999790881000
0	1.046	0.0000160649000	0.9999839351000
0	1.047	0.0000120282000	0.9999879718000
0	1.048	0.0000096520700	0.9999903479300
0	1.049	0.0000080314100	0.9999919685900
0	1.05	0.0000070262300	0.9999929737700
0	1.051	0.0000061009600	0.9999938990400
0	1.052	0.0000063169600	0.9999936830400
0	1.053	0.0000057195800	0.9999942804200
0	1.054	0.0000059469900	0.9999940530100
0	1.055	0.0000064042900	0.9999935957100
0	1.056	0.0000065478500	0.9999934521500
0	1.057	0.0000072665700	0.9999927334300
0	1.058	0.0000088620800	0.9999911379200
0	1.059	0.0000103375000	0.9999896625000
0	1.06	0.0000116525000	0.9999883475000
0	1.061	0.0000144518000	0.9999855482000
0	1.062	0.0000187187000	0.9999812813000
0	1.063	0.0000259074000	0.9999740926000
0	1.064	0.0000361864000	0.9999638136000
0	1.065	0.0000530180000	0.9999469820000
0	1.066	0.0000786192000	0.9999213808000
0	1.067	0.0001168900000	0.9998831100000
0	1.068	0.0001687640000	0.9998312360000
0	1.069	0.0002161960000	0.9997838040000
0	1.07	0.0002400010000	0.9997599990000
0	1.071	0.0002320610000	0.9997679390000
0	1.072	0.0002041540000	0.9997958460000
0	1.073	0.0001732540000	0.9998267460000
0	1.074	0.0001475570000	0.9998524430000
0	1.075	0.0001295970000	0.9998704030000
0	1.076	0.0001169600000	0.9998830400000
0	1.077	0.0001078180000	0.9998921820000
0	1.078	0.0001020700000	0.9998979300000
0	1.079	0.0000981958000	0.9999018042000
0	1.08	0.0000964616000	0.9999035384000
0	1.081	0.0000950183000	0.9999049817000
0	1.082	0.0000951786000	0.9999048214000
0	1.083	0.0000958354000	0.9999041646000
0	1.084	0.0000971014000	0.9999028986000
0	1.085	0.0000989419000	0.9999010581000
0	1.086	0.0001010870000	0.9998989130000
0	1.087	0.0001037580000	0.9998962420000
0	1.088	0.0001069530000	0.9998930470000
0	1.089	0.0001113050000	0.9998886950000
0	1.09	0.0001162370000	0.9998837630000
0	1.091	0.0001217280000	0.9998782720000
0	1.092	0.0001280670000	0.9998719330000
0	1.093	0.0001348810000	0.9998651190000
0	1.094	0.0001435090000	0.9998564910000
0	1.095	0.0001529260000	0.9998470740000
0	1.096	0.0001652890000	0.9998347110000
0	1.097	0.0001793830000	0.9998206170000
0	1.098	0.0001954050000	0.9998045950000
0	1.099	0.0002154580000	0.9997845420000
0	1.1	0.0002419590000	0.9997580410000
0	1.101	0.0002723980000	0.9997276020000
0	1.102	0.0003100660000	0.9996899340000
0	1.103	0.0003596650000	0.9996403350000
0	1.104	0.0004160050000	0.9995839950000
0	1.105	0.0004824610000	0.9995175390000
0	1.106	0.0005562600000	0.9994437400000
0	1.107	0.0006221100000	0.9993778900000
0	1.108	0.0006699640000	0.9993300360000
0	1.109	0.0006843330000	0.9993156670000
0	1.11	0.0006627330000	0.9993372670000
0	1.111	0.0006117200000	0.9993882800000
0	1.112	0.0005463590000	0.9994536410000
0	1.113	0.0004784340000	0.9995215660000
0	1.114	0.0004185890000	0.9995814110000
0	1.115	0.0003682900000	0.9996317100000
0	1.116	0.0003280070000	0.9996719930000
0	1.117	0.0002981300000	0.9997018700000
0	1.118	0.0002757540000	0.9997242460000
0	1.119	0.0002590160000	0.9997409840000
0	1.12	0.0002491310000	0.9997508690000
0	1.121	0.0002450950000	0.9997549050000
0	1.122	0.0002446670000	0.9997553330000
0	1.123	0.0002492280000	0.9997507720000
0	1.124	0.0002579290000	0.9997420710000
0	1.125	0.0002725480000	0.9997274520000
0	1.126	0.0002921180000	0.9997078820000
0	1.127	0.0003180720000	0.9996819280000
0	1.128	0.0003510490000	0.9996489510000
0	1.129	0.0003926210000	0.9996073790000
0	1.13	0.0004432650000	0.9995567350000
0	1.131	0.0005043270000	0.9994956730000
0	1.132	0.0005742100000	0.9994257900000
0	1.133	0.0006540230000	0.9993459770000
0	1.134	0.0007417670000	0.9992582330000
0	1.135	0.0008344570000	0.9991655430000
0	1.136	0.0009217450000	0.9990782550000
0	1.137	0.0010002700000	0.9989997300000
0	1.138	0.0010719400000	0.9989280600000
0	1.139	0.0011281400000	0.9988718600000
0	1.14	0.0011745700000	0.9988254300000
0	1.141	0.0012175200000	0.9987824800000
0	1.142	0.0012593100000	0.9987406900000
0	1.143	0.0013051400000	0.9986948600000
0	1.144	0.0013638600000	0.9986361400000
0	1.145	0.0014387400000	0.9985612600000
0	1.146	0.0015382900000	0.9984617100000
0	1.147	0.0016709800000	0.9983290200000
0	1.148	0.0018382400000	0.9981617600000
0	1.149	0.0020557900000	0.9979442100000
0	1.15	0.0023331600000	0.9976668400000
0	1.151	0.0026805700000	0.9973194300000
0	1.152	0.0031215100000	0.9968784900000
0	1.153	0.0036574200000	0.9963425800000
0	1.154	0.0043061300000	0.9956938700000
0	1.155	0.0050122200000	0.9949877800000
0	1.156	0.0057481200000	0.9942518800000
0	1.157	0.0064494800000	0.9935505200000
0	1.158	0.0069735700000	0.9930264300000
0	1.159	0.0072803400000	0.9927196600000
0	1.16	0.0073460200000	0.9926539800000
0	1.161	0.0072091200000	0.9927908800000
0	1.162	0.0069436000000	0.9930564000000
0	1.163	0.0066111500000	0.9933888500000
0	1.164	0.0062916700000	0.9937083300000
0	1.165	0.0060071700000	0.9939928300000
0	1.166	0.0057776500000	0.9942223500000
0	1.167	0.0056238000000	0.9943762000000
0	1.168	0.0055345600000	0.9944654400000
0	1.169	0.0055189900000	0.9944810100000
0	1.17	0.0055707400000	0.9944292600000
0	1.171	0.0056833000000	0.9943167000000
0	1.172	0.0058699400000	0.9941300600000
0	1.173	0.0061415700000	0.9938584300000
0	1.174	0.0064538900000	0.9935461100000
0	1.175	0.0068558500000	0.9931441500000
0	1.176	0.0073573900000	0.9926426100000
0	1.177	0.0079108100000	0.9920891900000
0	1.178	0.0085463400000	0.9914536600000
0	1.179	0.0092962000000	0.9907038000000
0	1.18	0.0100624000000	0.9899376000000
0	1.181	0.0108823000000	0.9891177000000
0	1.182	0.0117257000000	0.9882743000000
0	1.183	0.0125234000000	0.9874766000000
0	1.184	0.0132795000000	0.9867205000000
0	1.185	0.0139572000000	0.9860428000000
0	1.186	0.0145388000000	0.9854612000000
0	1.187	0.0149916000000	0.9850084000000
0	1.188	0.0153327000000	0.9846673000000
0	1.189	0.0156407000000	0.9843593000000
0	1.19	0.0158711000000	0.9841289000000
0	1.191	0.0161069000000	0.9838931000000
0	1.192	0.0163948000000	0.9836052000000
0	1.193	0.0166991000000	0.9833009000000
0	1.194	0.0171290000000	0.9828710000000
0	1.195	0.0177126000000	0.9822874000000
0	1.196	0.0184053000000	0.9815947000000
0	1.197	0.0193273000000	0.9806727000000
0	1.198	0.0204941000000	0.9795059000000
0	1.199	0.0218726000000	0.9781274000000
0	1.2	0.0235783000000	0.9764217000000
